500 0.008183
1000 0.041870
1500 0.095679
2000 0.178480
2500 0.291693
3000 0.412890
3500 0.601040
4000 0.781640
4500 1.011920
5000 1.332530
5500 1.875240
6000 1.968780
6500 2.754250
7000 3.094250
7500 3.276920
25000 37.039300
35000 57.506900
23000 32.161400
65000 63.587600
40000 46.700500
60000 74.399900
55000 54.665400
48000 63.881400
45000 49.281500
30000 37.778500
85000 112.429000
75000 71.935500
70000 70.041300
80000 98.552400
10000 8.544570
15000 12.805600
16000 24.042400
20000 28.157100
