start calculations
Wed Oct  5 23:42:26 MSK 2016

N1=1000 N2=18000 dN=1000

N = 1000
Forward cuFFT...
==44917== NVPROF is profiling process 44917, command: ./bin/run_gpu 1000 18000 1000
Time of 2d cuFFT computation: 0.000739098s

N = 2000
Forward cuFFT...
Time of 2d cuFFT computation: 0.00298595s

N = 3000
Forward cuFFT...
Time of 2d cuFFT computation: 0.010236s

N = 4000
Forward cuFFT...
Time of 2d cuFFT computation: 0.0129201s

N = 5000
Forward cuFFT...
Time of 2d cuFFT computation: 0.0310681s

N = 6000
Forward cuFFT...
Time of 2d cuFFT computation: 0.040796s

N = 7000
Forward cuFFT...
Time of 2d cuFFT computation: 0.0553801s

N = 8000
Forward cuFFT...
Time of 2d cuFFT computation: 0.058387s

N = 9000
Forward cuFFT...
Time of 2d cuFFT computation: 0.09022s

N = 10000
Forward cuFFT...
N = 11000
Forward cuFFT...
N = 12000
Forward cuFFT...
N = 13000
Forward cuFFT...
N = 14000
Forward cuFFT...
N = 15000
Forward cuFFT...
N = 16000
Forward cuFFT...
Cuda error: Failed to synchronize
Cuda error: Failed to allocate
Cuda error: Failed to allocate
Cuda error: Failed to allocate
Cuda error: Failed to allocate
Cuda error: Failed to allocate
Cuda error: Failed to allocate
Cuda error: Failed to allocate
Cuda error: Failed to allocate
N = 17000
Forward cuFFT...
N = 18000
Forward cuFFT...
Total time: 1.48014s
==44917== Profiling application: ./bin/run_gpu 1000 18000 1000
==44917== Warning: Found 53 invalid records in the result.
==44917== Warning: This can happen if device ran out of memory or if a device kernel was stopped due to an assertion.
==44917== Profiling result:
No kernels were profiled.

==44917== API calls:
Time(%)      Time     Calls       Avg       Min       Max  Name
 42.60%  574.84ms        28  20.530ms     715ns  570.95ms  cudaFree
 32.71%  441.30ms        20  22.065ms  6.1990us  139.71ms  cudaDeviceSynchronize
 24.22%  326.82ms        28  11.672ms     632ns  317.93ms  cudaMalloc
  0.28%  3.7162ms        10  371.62us  355.89us  390.52us  cudaGetDeviceProperties
  0.06%  824.39us       166  4.9660us     118ns  191.36us  cuDeviceGetAttribute
  0.06%  779.66us        53  14.710us  9.1090us  88.533us  cudaLaunch
  0.04%  565.90us      1040     544ns     421ns  29.360us  cudaFuncSetCacheConfig
  0.01%  132.91us        69  1.9260us     290ns  15.757us  cudaGetDevice
  0.01%  99.448us         2  49.724us  46.435us  53.013us  cuDeviceTotalMem
  0.01%  92.013us         2  46.006us  42.178us  49.835us  cuDeviceGetName
  0.00%  26.571us         4  6.6420us  3.2950us  15.781us  cudaBindTexture
  0.00%  25.084us        68     368ns     169ns  2.7330us  cudaGetLastError
  0.00%  16.994us        53     320ns     257ns     647ns  cudaSetupArgument
  0.00%  16.418us        53     309ns     237ns     950ns  cudaConfigureCall
  0.00%  13.838us        50     276ns     179ns     960ns  cudaPeekAtLastError
  0.00%  7.2810us         4  1.8200us  1.4930us  2.1550us  cudaUnbindTexture
  0.00%  2.6360us         3     878ns     339ns  1.7870us  cuDeviceGetCount
  0.00%  1.0600us         1  1.0600us  1.0600us  1.0600us  cuInit
  0.00%     879ns         3     293ns     187ns     372ns  cuDeviceGet
  0.00%     786ns         1     786ns     786ns     786ns  cuDriverGetVersion
Wed Oct  5 23:42:28 MSK 2016
end calculations
