start calculations
Fri Sep 30 17:59:47 MSK 2016
-------------------------------------------------------
Primary job  terminated normally, but 1 process returned
a non-zero exit code.. Per user-direction, the job has been aborted.
-------------------------------------------------------
./bin/run: error while loading shared libraries: libmpi.so.12: cannot open shared object file: No such file or directory
./bin/run: error while loading shared libraries: libmpi.so.12: cannot open shared object file: No such file or directory
./bin/run: error while loading shared libraries: libmpi.so.12: cannot open shared object file: No such file or directory
./bin/run: error while loading shared libraries: libmpi.so.12: cannot open shared object file: No such file or directory
./bin/run: error while loading shared libraries: libmpi.so.12: cannot open shared object file: No such file or directory
./bin/run: error while loading shared libraries: libmpi.so.12: cannot open shared object file: No such file or directory
./bin/run: error while loading shared libraries: libmpi.so.12: cannot open shared object file: No such file or directory
./bin/run: error while loading shared libraries: libmpi.so.12: cannot open shared object file: No such file or directory
./bin/run: error while loading shared libraries: libmpi.so.12: cannot open shared object file: No such file or directory
./bin/run: error while loading shared libraries: libmpi.so.12: cannot open shared object file: No such file or directory
./bin/run: error while loading shared libraries: libmpi.so.12: cannot open shared object file: No such file or directory
./bin/run: error while loading shared libraries: libmpi.so.12: cannot open shared object file: No such file or directory
./bin/run: error while loading shared libraries: libmpi.so.12: cannot open shared object file: No such file or directory
./bin/run: error while loading shared libraries: libmpi.so.12: cannot open shared object file: No such file or directory
./bin/run: error while loading shared libraries: libmpi.so.12: cannot open shared object file: No such file or directory
./bin/run: error while loading shared libraries: libmpi.so.12: cannot open shared object file: No such file or directory
./bin/run: error while loading shared libraries: libmpi.so.12: cannot open shared object file: No such file or directory
./bin/run: error while loading shared libraries: libmpi.so.12: cannot open shared object file: No such file or directory
./bin/run: error while loading shared libraries: libmpi.so.12: cannot open shared object file: No such file or directory
./bin/run: error while loading shared libraries: libmpi.so.12: cannot open shared object file: No such file or directory
./bin/run: error while loading shared libraries: libmpi.so.12: cannot open shared object file: No such file or directory
./bin/run: error while loading shared libraries: libmpi.so.12: cannot open shared object file: No such file or directory
./bin/run: error while loading shared libraries: libmpi.so.12: cannot open shared object file: No such file or directory
./bin/run: error while loading shared libraries: libmpi.so.12: cannot open shared object file: No such file or directory
--------------------------------------------------------------------------
mpiexec detected that one or more processes exited with non-zero status, thus causing
the job to be terminated. The first process to do so was:

  Process name: [[44629,1],0]
  Exit code:    127
--------------------------------------------------------------------------
Fri Sep 30 17:59:47 MSK 2016
end calculations
