start calculations
Fri Sep 30 15:07:29 MSK 2016
np = 2Forward DFT...
One Distributed Forward 2d DFT time: 0.000313044s
Forward DFT...
One Distributed Forward 2d DFT time: 0.000254869s
Total time: 0.00367188s
Fri Sep 30 15:07:30 MSK 2016
end calculations
