start calculations
Wed Oct  5 20:56:55 MSK 2016

N1=10000 N2=15000 dN=1000

start of host program
N = 10000
==42567== NVPROF is profiling process 42567, command: ./a.out 10000 15000 1000
Time of CPU-GPU copy: 0.134713s
Kernel execution time: 0.09779s
Time of GPU-CPU copy: 0.120713s
end of program

start of host program
N = 11000
Time of CPU-GPU copy: 0.163284s
Kernel execution time: 0.118287s
Time of GPU-CPU copy: 0.145742s
end of program

start of host program
N = 12000
Time of CPU-GPU copy: 0.194134s
Kernel execution time: 0.140756s
Time of GPU-CPU copy: 0.173516s
end of program

start of host program
N = 13000
Time of CPU-GPU copy: 0.228037s
Kernel execution time: 0.165172s
Time of GPU-CPU copy: 0.203719s
end of program

start of host program
N = 14000
Time of CPU-GPU copy: 0.262027s
Kernel execution time: 0.191567s
Time of GPU-CPU copy: 0.233854s
end of program

start of host program
N = 15000
Time of CPU-GPU copy: 0.300606s
Kernel execution time: 0.219921s
Time of GPU-CPU copy: 0.269573s
end of program

Total time: 11.5502s
==42567== Profiling application: ./a.out 10000 15000 1000
==42567== Profiling result:
Time(%)      Time     Calls       Avg       Min       Max  Name
 38.14%  1.28246s         6  213.74ms  134.65ms  300.55ms  [CUDA memcpy HtoD]
 34.11%  1.14685s         6  191.14ms  120.67ms  269.53ms  [CUDA memcpy DtoH]
 27.75%  933.17ms         6  155.53ms  97.713ms  219.87ms  square_array(double*, int)

==42567== API calls:
Time(%)      Time     Calls       Avg       Min       Max  Name
 45.07%  3.86257s         6  643.76ms  452.48ms  823.65ms  cudaMallocHost
 28.35%  2.42983s        12  202.49ms  120.69ms  300.60ms  cudaMemcpy
 15.57%  1.33430s         6  222.38ms  140.99ms  307.01ms  cudaFreeHost
 10.89%  933.20ms         6  155.53ms  97.717ms  219.87ms  cudaEventSynchronize
  0.07%  5.9236ms         6  987.27us  660.60us  1.3443ms  cudaMalloc
  0.03%  2.4638ms         6  410.63us  321.99us  487.51us  cudaFree
  0.00%  409.36us        83  4.9320us     128ns  188.14us  cuDeviceGetAttribute
  0.00%  275.32us         6  45.887us  34.822us  65.591us  cudaLaunch
  0.00%  245.65us        24  10.235us  4.0330us  29.999us  cudaDeviceSynchronize
  0.00%  118.00us        12  9.8330us  1.3590us  22.244us  cudaEventCreate
  0.00%  63.811us         1  63.811us  63.811us  63.811us  cuDeviceTotalMem
  0.00%  59.178us        12  4.9310us  3.0870us  7.9720us  cudaEventRecord
  0.00%  44.461us         1  44.461us  44.461us  44.461us  cuDeviceGetName
  0.00%  22.858us         6  3.8090us  3.6850us  3.9650us  cudaEventElapsedTime
  0.00%  8.4820us         6  1.4130us  1.1880us  1.8050us  cudaConfigureCall
  0.00%  8.2890us        12     690ns     188ns  3.1670us  cudaSetupArgument
  0.00%  2.3280us         2  1.1640us     529ns  1.7990us  cuDeviceGetCount
  0.00%     570ns         2     285ns     260ns     310ns  cuDeviceGet
Wed Oct  5 20:57:07 MSK 2016
end calculations
