start calculations
Wed Oct  5 13:04:00 MSK 2016
np = 24
N1=25000 N2=35000 dN=5000

M0=5.625e+09 Nn=1 Nc=24 W=9
Several groups of processes simultaneously perform their computations. All matrices lay at one node's DRAM
FFT test (fftw)
N x N = 25000 x 25000
Overall memory allocated for one array: 9536.74 Mb
Memory allocated on the core 0: 3179.17 Mb
Forward DFT...
One Distributed Forward 2d DFT time: 66.723s
FLOPs for one forward DFT: 4.3625e+10 adds, 2.3125e+10 mults, 1.95e+10 fmas

M0=5.625e+09 Nn=1 Nc=24 W=6
Several groups of processes simultaneously perform their computations. All matrices lay at one node's DRAM
FFT test (fftw)
N x N = 30000 x 30000
Overall memory allocated for one array: 13732.9 Mb
Memory allocated on the core 0: 3433.23 Mb
[blade06:16602] *** Process received signal ***
[blade06:16602] Signal: Segmentation fault (11)
[blade06:16602] Signal code: Address not mapped (1)
[blade06:16602] Failing at address: (nil)
[blade06:16602] [ 0] /lib64/libpthread.so.0[0x35b580f7e0]
[blade06:16602] [ 1] ./bin/run[0x429453]
[blade06:16602] [ 2] ./bin/run[0x40fea0]
[blade06:16602] [ 3] ./bin/run[0x410b02]
[blade06:16602] [ 4] ./bin/run[0x41121c]
[blade06:16602] [ 5] /lib64/libc.so.6(__libc_start_main+0xfd)[0x35b541ed5d]
[blade06:16602] [ 6] ./bin/run[0x409f39]
[blade06:16602] *** End of error message ***
[blade06:16605] *** Process received signal ***
[blade06:16605] Signal: Segmentation fault (11)
[blade06:16605] Signal code: Address not mapped (1)
[blade06:16605] Failing at address: (nil)
[blade06:16605] [ 0] /lib64/libpthread.so.0[0x35b580f7e0]
[blade06:16605] [ 1] ./bin/run[0x429453]
[blade06:16605] [ 2] ./bin/run[0x40fea0]
[blade06:16605] [ 3] ./bin/run[0x410b02]
[blade06:16605] [ 4] ./bin/run[0x41121c]
[blade06:16605] [ 5] /lib64/libc.so.6(__libc_start_main+0xfd)[0x35b541ed5d]
[blade06:16605] [ 6] ./bin/run[0x409f39]
[blade06:16605] *** End of error message ***
[blade06:16580] *** Process received signal ***
[blade06:16580] Signal: Segmentation fault (11)
[blade06:16580] Signal code: Address not mapped (1)
[blade06:16580] Failing at address: (nil)
[blade06:16580] [ 0] /lib64/libpthread.so.0[0x35b580f7e0]
[blade06:16580] [ 1] ./bin/run[0x429453]
[blade06:16580] [ 2] ./bin/run[0x40fea0]
[blade06:16580] [ 3] ./bin/run[0x410b02]
[blade06:16580] [ 4] ./bin/run[0x41121c]
[blade06:16580] [ 5] /lib64/libc.so.6(__libc_start_main+0xfd)[0x35b541ed5d]
[blade06:16580] [ 6] ./bin/run[0x409f39]
[blade06:16580] *** End of error message ***
[blade06:16603] *** Process received signal ***
[blade06:16603] Signal: Segmentation fault (11)
[blade06:16603] Signal code: Address not mapped (1)
[blade06:16603] Failing at address: (nil)
[blade06:16588] *** Process received signal ***
[blade06:16588] Signal: Segmentation fault (11)
[blade06:16588] Signal code: Address not mapped (1)
[blade06:16588] Failing at address: (nil)
[blade06:16588] [ 0] /lib64/libpthread.so.0[0x35b580f7e0]
[blade06:16588] [ 1] ./bin/run[0x429453]
[blade06:16588] [ 2] ./bin/run[0x40fea0]
[blade06:16588] [ 3] ./bin/run[0x410b02]
[blade06:16588] [ 4] ./bin/run[0x41121c]
[blade06:16588] [ 5] /lib64/libc.so.6(__libc_start_main+0xfd)[0x35b541ed5d]
[blade06:16588] [ 6] ./bin/run[0x409f39]
[blade06:16588] *** End of error message ***
[blade06:16603] [ 0] /lib64/libpthread.so.0[0x35b580f7e0]
[blade06:16603] [ 1] ./bin/run[0x429453]
[blade06:16603] [ 2] ./bin/run[0x40fea0]
[blade06:16603] [ 3] ./bin/run[0x410b02]
[blade06:16603] [ 4] ./bin/run[0x41121c]
[blade06:16603] [ 5] /lib64/libc.so.6(__libc_start_main+0xfd)[0x35b541ed5d]
[blade06:16603] [ 6] ./bin/run[0x409f39]
[blade06:16603] *** End of error message ***
[blade06:16581] *** Process received signal ***
[blade06:16581] Signal: Segmentation fault (11)
[blade06:16581] Signal code: Address not mapped (1)
[blade06:16581] Failing at address: (nil)
[blade06:16581] [ 0] /lib64/libpthread.so.0[0x35b580f7e0]
[blade06:16581] [ 1] ./bin/run[0x429453]
[blade06:16581] [ 2] ./bin/run[0x40fea0]
[blade06:16581] [ 3] ./bin/run[0x410b02]
[blade06:16581] [ 4] ./bin/run[0x41121c]
[blade06:16581] [ 5] /lib64/libc.so.6(__libc_start_main+0xfd)[0x35b541ed5d]
[blade06:16581] [ 6] ./bin/run[0x409f39]
[blade06:16581] *** End of error message ***
[blade06:16586] *** Process received signal ***
[blade06:16586] Signal: Segmentation fault (11)
[blade06:16586] Signal code: Address not mapped (1)
[blade06:16586] Failing at address: (nil)
[blade06:16586] [ 0] /lib64/libpthread.so.0[0x35b580f7e0]
[blade06:16586] [ 1] ./bin/run[0x429453]
[blade06:16586] [ 2] ./bin/run[0x40fea0]
[blade06:16586] [ 3] ./bin/run[0x410b02]
[blade06:16586] [ 4] ./bin/run[0x41121c]
[blade06:16586] [ 5] /lib64/libc.so.6(__libc_start_main+0xfd)[0x35b541ed5d]
[blade06:16586] [ 6] ./bin/run[0x409f39]
[blade06:16586] *** End of error message ***
[blade06:16601] *** Process received signal ***
[blade06:16582] *** Process received signal ***
[blade06:16582] Signal: Segmentation fault (11)
[blade06:16582] Signal code: Address not mapped (1)
[blade06:16582] Failing at address: (nil)
[blade06:16582] [ 0] [blade06:16601] Signal: Segmentation fault (11)
[blade06:16601] Signal code: Address not mapped (1)
[blade06:16601] Failing at address: (nil)
/lib64/libpthread.so.0[0x35b580f7e0]
[blade06:16582] [ 1] ./bin/run[0x429453]
[blade06:16582] [ 2] ./bin/run[0x40fea0]
[blade06:16582] [ 3] ./bin/run[0x410b02]
[blade06:16582] [ 4] ./bin/run[0x41121c]
[blade06:16582] [ 5] /lib64/libc.so.6(__libc_start_main+0xfd)[0x35b541ed5d]
[blade06:16582] [ 6] ./bin/run[0x409f39]
[blade06:16582] *** End of error message ***
[blade06:16601] [ 0] /lib64/libpthread.so.0[0x35b580f7e0]
[blade06:16601] [ 1] ./bin/run[0x429453]
[blade06:16601] [ 2] [blade06:16589] *** Process received signal ***
[blade06:16589] Signal: Segmentation fault (11)
[blade06:16589] Signal code: Address not mapped (1)
[blade06:16589] Failing at address: (nil)
./bin/run[0x40fea0]
[blade06:16601] [ 3] ./bin/run[0x410b02]
[blade06:16601] [ 4] ./bin/run[0x41121c]
[blade06:16601] [ 5] [blade06:16590] *** Process received signal ***
[blade06:16590] Signal: Segmentation fault (11)
[blade06:16590] Signal code: Address not mapped (1)
[blade06:16590] Failing at address: (nil)
[blade06:16590] [ 0] /lib64/libpthread.so.0[0x35b580f7e0]
[blade06:16590] [ 1] ./bin/run[0x429453]
[blade06:16590] [ 2] ./bin/run[0x40fea0]
[blade06:16590] [blade06:16589] [ 0] /lib64/libpthread.so.0[0x35b580f7e0]
[blade06:16589] [ 1] ./bin/run[0x429453]
[blade06:16589] [ 2] ./bin/run[0x40fea0]
[blade06:16589] [ 3] ./bin/run[0x410b02]
[blade06:16589] [ 4] ./bin/run[0x41121c]
[blade06:16589] [ 5] /lib64/libc.so.6(__libc_start_main+0xfd)[0x35b541ed5d]
[blade06:16601] [ 6] ./bin/run[0x409f39]
[blade06:16601] *** End of error message ***
[ 3] ./bin/run[0x410b02]
[blade06:16590] [ 4] ./bin/run[0x41121c]
[blade06:16590] [ 5] /lib64/libc.so.6(__libc_start_main+0xfd)[0x35b541ed5d]
[blade06:16590] [ 6] ./bin/run[0x409f39]
[blade06:16590] *** End of error message ***
/lib64/libc.so.6(__libc_start_main+0xfd)[0x35b541ed5d]
[blade06:16589] [ 6] ./bin/run[0x409f39]
[blade06:16589] *** End of error message ***
[blade06:16583] *** Process received signal ***
[blade06:16583] Signal: Segmentation fault (11)
[blade06:16583] Signal code: Address not mapped (1)
[blade06:16583] Failing at address: (nil)
[blade06:16585] *** Process received signal ***
[blade06:16585] Signal: Segmentation fault (11)
[blade06:16585] Signal code: Address not mapped (1)
[blade06:16585] Failing at address: (nil)
[blade06:16583] [ 0] /lib64/libpthread.so.0[0x35b580f7e0]
[blade06:16583] [ 1] ./bin/run[0x429453]
[blade06:16583] [ 2] ./bin/run[0x40fea0]
[blade06:16583] [ 3] ./bin/run[0x410b02]
[blade06:16583] [ 4] [blade06:16585] [ 0] /lib64/libpthread.so.0[0x35b580f7e0]
[blade06:16585] [ 1] ./bin/run[0x429453]
[blade06:16585] [ 2] ./bin/run[0x40fea0]
[blade06:16585] [ 3] ./bin/run[0x410b02]
[blade06:16585] [ 4] ./bin/run[0x41121c]
[blade06:16585] [ 5] /lib64/libc.so.6(__libc_start_main+0xfd)[0x35b541ed5d]
[blade06:16585] [ 6] ./bin/run[0x409f39]
[blade06:16585] *** End of error message ***
./bin/run[0x41121c]
[blade06:16583] [ 5] /lib64/libc.so.6(__libc_start_main+0xfd)[0x35b541ed5d]
[blade06:16583] [ 6] ./bin/run[0x409f39]
[blade06:16583] *** End of error message ***
[blade06:16584] *** Process received signal ***
[blade06:16584] Signal: Segmentation fault (11)
[blade06:16584] Signal code: Address not mapped (1)
[blade06:16584] Failing at address: (nil)
[blade06:16584] [ 0] /lib64/libpthread.so.0[0x35b580f7e0]
[blade06:16584] [ 1] ./bin/run[0x429453]
[blade06:16584] [ 2] ./bin/run[0x40fea0]
[blade06:16584] [ 3] ./bin/run[0x410b02]
[blade06:16584] [ 4] ./bin/run[0x41121c]
[blade06:16584] [ 5] /lib64/libc.so.6(__libc_start_main+0xfd)[0x35b541ed5d]
[blade06:16584] [ 6] ./bin/run[0x409f39]
[blade06:16584] *** End of error message ***
[blade06:16599] *** Process received signal ***
[blade06:16599] Signal: Segmentation fault (11)
[blade06:16599] Signal code: Address not mapped (1)
[blade06:16599] Failing at address: (nil)
[blade06:16591] *** Process received signal ***
[blade06:16591] Signal: Segmentation fault (11)
[blade06:16591] Signal code: Address not mapped (1)
[blade06:16591] Failing at address: (nil)
[blade06:16599] [ 0] /lib64/libpthread.so.0[0x35b580f7e0]
[blade06:16599] [ 1] ./bin/run[0x429453]
[blade06:16599] [ 2] ./bin/run[0x40fea0]
[blade06:16599] [ 3] ./bin/run[0x410b02]
[blade06:16599] [ 4] ./bin/run[0x41121c]
[blade06:16599] [ 5] /lib64/libc.so.6(__libc_start_main+0xfd)[0x35b541ed5d]
[blade06:16599] [ 6] ./bin/run[0x409f39]
[blade06:16599] *** End of error message ***
[blade06:16591] [ 0] /lib64/libpthread.so.0[0x35b580f7e0]
[blade06:16591] [ 1] ./bin/run[0x429453]
[blade06:16591] [ 2] ./bin/run[0x40fea0]
[blade06:16591] [ 3] ./bin/run[0x410b02]
[blade06:16591] [ 4] ./bin/run[0x41121c]
[blade06:16591] [ 5] /lib64/libc.so.6(__libc_start_main+0xfd)[0x35b541ed5d]
[blade06:16591] [ 6] ./bin/run[0x409f39]
[blade06:16591] *** End of error message ***
[blade06:16596] *** Process received signal ***
[blade06:16596] Signal: Segmentation fault (11)
[blade06:16596] Signal code: Address not mapped (1)
[blade06:16596] Failing at address: (nil)
[blade06:16597] *** Process received signal ***
[blade06:16597] Signal: Segmentation fault (11)
[blade06:16597] Signal code: Address not mapped (1)
[blade06:16597] Failing at address: (nil)
[blade06:16596] [ 0] /lib64/libpthread.so.0[0x35b580f7e0]
[blade06:16596] [ 1] ./bin/run[0x429453]
[blade06:16596] [ 2] ./bin/run[0x40fea0]
[blade06:16596] [ 3] ./bin/run[0x410b02]
[blade06:16596] [ 4] ./bin/run[0x41121c]
[blade06:16596] [ 5] /lib64/libc.so.6(__libc_start_main+0xfd)[0x35b541ed5d]
[blade06:16596] [ 6] ./bin/run[0x409f39]
[blade06:16596] *** End of error message ***
[blade06:16597] [ 0] /lib64/libpthread.so.0[0x35b580f7e0]
[blade06:16597] [ 1] ./bin/run[0x429453]
[blade06:16597] [ 2] ./bin/run[0x40fea0]
[blade06:16597] [ 3] ./bin/run[0x410b02]
[blade06:16597] [ 4] ./bin/run[0x41121c]
[blade06:16597] [ 5] /lib64/libc.so.6(__libc_start_main+0xfd)[0x35b541ed5d]
[blade06:16597] [ 6] ./bin/run[0x409f39]
[blade06:16597] *** End of error message ***
[blade06:16595] *** Process received signal ***
[blade06:16595] Signal: Segmentation fault (11)
[blade06:16595] Signal code: Address not mapped (1)
[blade06:16595] Failing at address: (nil)
[blade06:16595] [ 0] /lib64/libpthread.so.0[0x35b580f7e0]
[blade06:16595] [ 1] ./bin/run[0x429453]
[blade06:16595] [ 2] ./bin/run[0x40fea0]
[blade06:16595] [ 3] ./bin/run[0x410b02]
[blade06:16595] [ 4] ./bin/run[0x41121c]
[blade06:16595] [ 5] /lib64/libc.so.6(__libc_start_main+0xfd)[0x35b541ed5d]
[blade06:16595] [ 6] ./bin/run[0x409f39]
[blade06:16595] *** End of error message ***
[blade06:16598] *** Process received signal ***
[blade06:16598] Signal: Segmentation fault (11)
[blade06:16598] Signal code: Address not mapped (1)
[blade06:16598] Failing at address: (nil)
[blade06:16598] [ 0] /lib64/libpthread.so.0[0x35b580f7e0]
[blade06:16598] [ 1] ./bin/run[0x429453]
[blade06:16598] [ 2] ./bin/run[0x40fea0]
[blade06:16598] [ 3] ./bin/run[0x410b02]
[blade06:16598] [ 4] ./bin/run[0x41121c]
[blade06:16598] [ 5] /lib64/libc.so.6(__libc_start_main+0xfd)[0x35b541ed5d]
[blade06:16598] [ 6] ./bin/run[0x409f39]
[blade06:16598] *** End of error message ***
[blade06:16600] *** Process received signal ***
[blade06:16600] Signal: Segmentation fault (11)
[blade06:16600] Signal code: Address not mapped (1)
[blade06:16600] Failing at address: (nil)
[blade06:16600] [ 0] /lib64/libpthread.so.0[0x35b580f7e0]
[blade06:16600] [ 1] [blade06:16593] *** Process received signal ***
[blade06:16593] Signal: Segmentation fault (11)
[blade06:16593] Signal code: Address not mapped (1)
[blade06:16593] Failing at address: (nil)
./bin/run[0x429453]
[blade06:16600] [ 2] ./bin/run[0x40fea0]
[blade06:16600] [ 3] ./bin/run[0x410b02]
[blade06:16600] [ 4] ./bin/run[0x41121c]
[blade06:16600] [ 5] /lib64/libc.so.6(__libc_start_main+0xfd)[0x35b541ed5d]
[blade06:16600] [ 6] ./bin/run[0x409f39]
[blade06:16600] *** End of error message ***
[blade06:16593] [ 0] /lib64/libpthread.so.0[0x35b580f7e0]
[blade06:16593] [ 1] ./bin/run[0x429453]
[blade06:16593] [ 2] ./bin/run[0x40fea0]
[blade06:16593] [ 3] ./bin/run[0x410b02]
[blade06:16593] [ 4] ./bin/run[0x41121c]
[blade06:16593] [ 5] /lib64/libc.so.6(__libc_start_main+0xfd)[0x35b541ed5d]
[blade06:16593] [ 6] ./bin/run[0x409f39]
[blade06:16593] *** End of error message ***
--------------------------------------------------------------------------
mpiexec noticed that process rank 2 with PID 16580 on node blade06 exited on signal 11 (Segmentation fault).
--------------------------------------------------------------------------
4 total processes killed (some possibly by mpiexec during cleanup)
Wed Oct  5 13:05:11 MSK 2016
end calculations
