start calculations
Wed Oct  5 23:33:05 MSK 2016

N1=1000 N2=18000 dN=1000

N = 1000
Forward cuFFT...
==44647== NVPROF is profiling process 44647, command: ./bin/run_gpu 1000 18000 1000
Time of 2d cuFFT computation: 0.000396967s

N = 2000
Forward cuFFT...
Time of 2d cuFFT computation: 0.00176191s

N = 3000
Forward cuFFT...
Time of 2d cuFFT computation: 0.00525284s

N = 4000
Forward cuFFT...
Time of 2d cuFFT computation: 0.00645685s

N = 5000
Forward cuFFT...
Time of 2d cuFFT computation: 0.0146239s

N = 6000
Forward cuFFT...
Time of 2d cuFFT computation: 0.021107s

N = 7000
Forward cuFFT...
Time of 2d cuFFT computation: 0.028805s

N = 8000
Forward cuFFT...
Time of 2d cuFFT computation: 0.0289309s

N = 9000
Forward cuFFT...
Time of 2d cuFFT computation: 0.047245s

N = 10000
Forward cuFFT...
Time of 2d cuFFT computation: 0.0586751s

N = 11000
Forward cuFFT...
Time of 2d cuFFT computation: 0.103011s

N = 12000
Forward cuFFT...
Time of 2d cuFFT computation: 0.08673s

N = 13000
Forward cuFFT...
Time of 2d cuFFT computation: 0.14609s

N = 14000
Forward cuFFT...
Time of 2d cuFFT computation: 0.12024s

N = 15000
Forward cuFFT...
Time of 2d cuFFT computation: 0.170816s

N = 16000
Forward cuFFT...
Time of 2d cuFFT computation: 0.119742s

N = 17000
Forward cuFFT...
Time of 2d cuFFT computation: 0.265797s

N = 18000
Forward cuFFT...
Time of 2d cuFFT computation: 0.190173s

Total time: 2.38965s
==44647== Profiling application: ./bin/run_gpu 1000 18000 1000
==44647== Profiling result:
Time(%)      Time     Calls       Avg       Min       Max  Name
 19.67%  278.31ms        14  19.879ms  4.0824ms  37.388ms  void spRadix0125C::kernel1Mem<unsigned int, float, fftDirection_t=-1, unsigned int=16, unsigned int=3, CONSTANT, ALL, WRITEBACK>(kernel_parameters_t<fft_mem_radix1_t, unsigned int, float>)
  9.37%  132.61ms         2  66.306ms  66.205ms  66.408ms  void RADIX_M::radixM_kernel<unsigned int, unsigned int=17, radixM_float>(radix_m_parameters_t<unsigned int, radixM_floatprecision>)
  9.31%  131.72ms        12  10.976ms  422.49us  33.302ms  void spRadix0125C::kernel3Mem<unsigned int, float, fftDirection_t=-1, unsigned int=16, unsigned int=3, CONSTANT, ALL, WRITEBACK>(kernel_parameters_t<fft_mem_radix3_t, unsigned int, float>)
  8.94%  126.52ms        15  8.4347ms  6.0480us  29.024ms  void spRadix0008A::kernel1Mem<unsigned int, float, fftDirection_t=-1, unsigned int=256, unsigned int=4, CONSTANT, ALL, WRITEBACK>(kernel_parameters_t<fft_mem_radix1_t, unsigned int, float>)
  6.85%  96.861ms         8  12.108ms  2.5265ms  23.465ms  void spRadix0025B::kernel1Mem<unsigned int, float, fftDirection_t=-1, unsigned int=64, unsigned int=4, CONSTANT, ALL, WRITEBACK>(kernel_parameters_t<fft_mem_radix1_t, unsigned int, float>)
  5.32%  75.236ms         3  25.079ms  15.578ms  37.638ms  void spRadix0008A::kernel3Mem<unsigned int, float, fftDirection_t=-1, unsigned int=256, unsigned int=4, CONSTANT, ALL, WRITEBACK>(kernel_parameters_t<fft_mem_radix3_t, unsigned int, float>)
  5.16%  73.064ms         4  18.266ms  7.2912ms  29.375ms  void spRadix0009A::kernel1Mem<unsigned int, float, fftDirection_t=-1, unsigned int=256, unsigned int=4, CONSTANT, ALL, WRITEBACK>(kernel_parameters_t<fft_mem_radix1_t, unsigned int, float>)
  5.11%  72.347ms         7  10.335ms  801.59us  19.893ms  void spRadix0003A::kernel1Mem<unsigned int, float, fftDirection_t=-1, unsigned int=256, unsigned int=6, CONSTANT, ALL, WRITEBACK>(kernel_parameters_t<fft_mem_radix1_t, unsigned int, float>)
  4.99%  70.569ms         2  35.284ms  35.211ms  35.358ms  void RADIX_M::radixM_kernel<unsigned int, unsigned int=13, radixM_float>(radix_m_parameters_t<unsigned int, radixM_floatprecision>)
  4.66%  65.955ms         5  13.191ms  395.04us  32.334ms  void spRadix0016B::kernel1Mem<unsigned int, float, fftDirection_t=-1, unsigned int=64, unsigned int=6, CONSTANT, ALL, WRITEBACK>(kernel_parameters_t<fft_mem_radix1_t, unsigned int, float>)
  4.25%  60.152ms         4  15.038ms  3.2998ms  29.688ms  void spRadix0016A::kernel1Mem<unsigned int, float, fftDirection_t=-1, unsigned int=128, unsigned int=4, CONSTANT, ALL, WRITEBACK>(kernel_parameters_t<fft_mem_radix1_t, unsigned int, float>)
  3.48%  49.177ms         2  24.588ms  24.564ms  24.612ms  void RADIX_M::radixM_kernel<unsigned int, unsigned int=11, radixM_float>(radix_m_parameters_t<unsigned int, radixM_floatprecision>)
  3.13%  44.258ms         4  11.064ms  4.4278ms  17.675ms  void spRadix0007A::kernel1Mem<unsigned int, float, fftDirection_t=-1, unsigned int=256, unsigned int=3, CONSTANT, ALL, WRITEBACK>(kernel_parameters_t<fft_mem_radix1_t, unsigned int, float>)
  2.12%  29.968ms         3  9.9893ms  1.5855ms  14.241ms  void spRadix0032B::kernel1Mem<unsigned int, float, fftDirection_t=-1, unsigned int=64, unsigned int=4, CONSTANT, ALL, WRITEBACK>(kernel_parameters_t<fft_mem_radix1_t, unsigned int, float>)
  2.00%  28.247ms         1  28.247ms  28.247ms  28.247ms  void spRadix0128C::kernel1Mem<unsigned int, float, fftDirection_t=-1, unsigned int=16, unsigned int=4, L1, ALL, WRITEBACK>(kernel_parameters_t<fft_mem_radix1_t, unsigned int, float>)
  1.96%  27.714ms         1  27.714ms  27.714ms  27.714ms  void spRadix0128B::kernel1Mem<unsigned int, float, fftDirection_t=-1, unsigned int=16, unsigned int=4, L1, ALL, WRITEBACK>(kernel_parameters_t<fft_mem_radix1_t, unsigned int, float>)
  1.64%  23.172ms         2  11.586ms  2.3259ms  20.846ms  void spRadix0025B::kernel3Mem<unsigned int, float, fftDirection_t=-1, unsigned int=64, unsigned int=4, CONSTANT, ALL, WRITEBACK>(kernel_parameters_t<fft_mem_radix3_t, unsigned int, float>)
  0.91%  12.929ms         2  6.4647ms  6.2777ms  6.6516ms  void spRadix0064B::kernel1Mem<unsigned int, float, fftDirection_t=-1, unsigned int=32, unsigned int=4, CONSTANT, ALL, WRITEBACK>(kernel_parameters_t<fft_mem_radix1_t, unsigned int, float>)
  0.63%  8.9310ms         1  8.9310ms  8.9310ms  8.9310ms  void spRadix0005A::kernel1Mem<unsigned int, float, fftDirection_t=-1, unsigned int=256, unsigned int=5, CONSTANT, ALL, WRITEBACK>(kernel_parameters_t<fft_mem_radix1_t, unsigned int, float>)
  0.21%  3.0184ms         3  1.0061ms  440.06us  1.6273ms  void spRadix0125C::kernel1Tex<unsigned int, float, fftDirection_t=-1, unsigned int=16, unsigned int=3, CONSTANT, ALL, WRITEBACK>(kernel_parameters_t<fft_tex_radix1_t, unsigned int, float>)
  0.11%  1.5152ms         1  1.5152ms  1.5152ms  1.5152ms  void spRadix0032B::kernel1Tex<unsigned int, float, fftDirection_t=-1, unsigned int=64, unsigned int=4, CONSTANT, ALL, WRITEBACK>(kernel_parameters_t<fft_tex_radix1_t, unsigned int, float>)
  0.06%  834.29us         1  834.29us  834.29us  834.29us  void spRadix0008A::kernel1Tex<unsigned int, float, fftDirection_t=-1, unsigned int=256, unsigned int=4, CONSTANT, ALL, WRITEBACK>(kernel_parameters_t<fft_tex_radix1_t, unsigned int, float>)
  0.06%  800.82us         1  800.82us  800.82us  800.82us  void spRadix0003A::kernel1Tex<unsigned int, float, fftDirection_t=-1, unsigned int=256, unsigned int=6, CONSTANT, ALL, WRITEBACK>(kernel_parameters_t<fft_tex_radix1_t, unsigned int, float>)
  0.03%  365.69us         1  365.69us  365.69us  365.69us  void spRadix0016A::kernel1Tex<unsigned int, float, fftDirection_t=-1, unsigned int=128, unsigned int=4, CONSTANT, ALL, WRITEBACK>(kernel_parameters_t<fft_tex_radix1_t, unsigned int, float>)
  0.02%  216.03us         1  216.03us  216.03us  216.03us  void regular_fft<unsigned int=1000, unsigned int=1, unsigned int=10, unsigned int=8, unsigned int=1, unsigned int=0, unsigned int=2, unsigned int=1, unsigned int=1, unsigned int=1, unsigned int, float2, float, float>(kernel_arguments_t<unsigned int>)
  0.01%  108.38us         1  108.38us  108.38us  108.38us  void regular_fft<unsigned int=1000, unsigned int=1, unsigned int=10, unsigned int=1, unsigned int=1, unsigned int=0, unsigned int=2, unsigned int=1, unsigned int=1, unsigned int=0, unsigned int, float2, float, float>(kernel_arguments_t<unsigned int>)

==44647== API calls:
Time(%)      Time     Calls       Avg       Min       Max  Name
 60.06%  1.41355s        36  39.265ms  6.1450us  265.64ms  cudaDeviceSynchronize
 25.10%  590.75ms        54  10.940ms     672ns  580.06ms  cudaFree
 14.40%  338.82ms        36  9.4118ms  175.75us  312.68ms  cudaMalloc
  0.28%  6.5984ms        18  366.58us  342.70us  398.20us  cudaGetDeviceProperties
  0.06%  1.4256ms       101  14.114us  8.9870us  67.233us  cudaLaunch
  0.04%  976.36us      1832     532ns     423ns  14.590us  cudaFuncSetCacheConfig
  0.03%  787.12us       166  4.7410us     121ns  186.08us  cuDeviceGetAttribute
  0.01%  220.01us       126  1.7460us     266ns  16.507us  cudaGetDevice
  0.00%  104.27us         2  52.135us  41.888us  62.383us  cuDeviceTotalMem
  0.00%  87.477us         2  43.738us  42.815us  44.662us  cuDeviceGetName
  0.00%  36.821us       114     322ns     193ns  2.2340us  cudaGetLastError
  0.00%  33.876us         7  4.8390us  2.9290us  12.732us  cudaBindTexture
  0.00%  33.214us       101     328ns     245ns  2.2260us  cudaConfigureCall
  0.00%  29.831us       101     295ns     235ns     855ns  cudaSetupArgument
  0.00%  24.690us        96     257ns     158ns  1.0260us  cudaPeekAtLastError
  0.00%  11.930us         7  1.7040us  1.4830us  2.0780us  cudaUnbindTexture
  0.00%  2.5470us         3     849ns     334ns  1.7500us  cuDeviceGetCount
  0.00%     927ns         1     927ns     927ns     927ns  cuDriverGetVersion
  0.00%     843ns         3     281ns     228ns     379ns  cuDeviceGet
  0.00%     715ns         1     715ns     715ns     715ns  cuInit
Wed Oct  5 23:33:08 MSK 2016
end calculations
