start calculations
Fri Oct  7 15:48:26 MSK 2016

N1=1000 N2=19000 dN=1000

N = 1000
Forward cuFFT...
==153623== NVPROF is profiling process 153623, command: ./bin/run_gpu 1000 19000 1000
==153623== Profiling application: ./bin/run_gpu 1000 19000 1000
==153623== Profiling result:
No kernels were profiled.

==153623== API calls:
No API activities were profiled.
==153623== Warning: Some profiling data are not recorded. Make sure cudaProfilerStop() or cuProfilerStop() is called before application exit to flush profile data.
======== Error: Application received signal 11
srun: error: blade10: task 0: Exited with exit code 15
Fri Oct  7 15:48:26 MSK 2016
end calculations
