start calculations
Fri Sep 30 15:15:09 MSK 2016
np = 2
FFT test (fftw)
N x N = 1000 x 1000
Overall memory allocated for one array: 15.2588 Mb
Memory allocated on the core 0: 7.62939 Mb
Forward DFT...
One Distributed Forward 2d DFT time: 0.0812135s
FLOPs for one forward DFT: 4.74e+07 adds, 2.26e+07 mults, 1.84e+07 fmas


FFT test (fftw)
N x N = 1000 x 1000
Overall memory allocated for one array: 15.2588 Mb
Memory allocated on the core 0: 7.62939 Mb
Forward DFT...
One Distributed Forward 2d DFT time: 0.0818334s
FLOPs for one forward DFT: 4.74e+07 adds, 2.26e+07 mults, 1.84e+07 fmas

Total time: 1.64066s
Fri Sep 30 15:15:11 MSK 2016
end calculations
