start calculations
Sat Sep 24 14:36:54 MSK 2016

FFTW test 
N x N = 100 x 100

Overall memory allocated for one array: 0.152588 Mb
Memory allocated on the core 0: 0.152588 Mb
Forward DFT...
One Distributed Forward 2d DFT time: 0.00015378s
FLOPs for one forward DFT: 288000 adds, 85000 mults, 85000 fmas
Total time: 0.0585091s
Sat Sep 24 14:36:54 MSK 2016
end calculations
