start calculations
Wed Oct  5 19:48:58 MSK 2016

N1=10000 N2=15000 dN=1000

start of host program
==41606== NVPROF is profiling process 41606, command: ./a.out 10000 15000 1000
Time of CPU-GPU copy: 0.619737s
Kernel execution time: 0.220046s
Time of GPU-CPU copy: 0.709608s
end of program
Total time: 2.98604s
==41606== Profiling application: ./a.out 10000 15000 1000
==41606== Profiling result:
Time(%)      Time     Calls       Avg       Min       Max  Name
 45.80%  709.20ms         1  709.20ms  709.20ms  709.20ms  [CUDA memcpy DtoH]
 39.99%  619.32ms         1  619.32ms  619.32ms  619.32ms  [CUDA memcpy HtoD]
 14.21%  219.98ms         1  219.98ms  219.98ms  219.98ms  square_array(double*, int)

==41606== API calls:
Time(%)      Time     Calls       Avg       Min       Max  Name
 71.21%  1.32923s         2  664.62ms  619.63ms  709.60ms  cudaMemcpy
 16.95%  316.32ms         1  316.32ms  316.32ms  316.32ms  cudaMalloc
 11.79%  219.99ms         1  219.99ms  219.99ms  219.99ms  cudaEventSynchronize
  0.02%  454.00us         1  454.00us  454.00us  454.00us  cudaFree
  0.02%  355.04us        83  4.2770us     127ns  156.61us  cuDeviceGetAttribute
  0.01%  141.67us         4  35.417us  4.4110us  101.07us  cudaDeviceSynchronize
  0.00%  51.061us         1  51.061us  51.061us  51.061us  cudaLaunch
  0.00%  42.861us         1  42.861us  42.861us  42.861us  cuDeviceTotalMem
  0.00%  39.246us         1  39.246us  39.246us  39.246us  cuDeviceGetName
  0.00%  19.507us         2  9.7530us     913ns  18.594us  cudaEventCreate
  0.00%  10.408us         2  5.2040us  3.3400us  7.0680us  cudaEventRecord
  0.00%  3.8800us         1  3.8800us  3.8800us  3.8800us  cudaEventElapsedTime
  0.00%  3.3140us         2  1.6570us     226ns  3.0880us  cudaSetupArgument
  0.00%  2.1300us         2  1.0650us     553ns  1.5770us  cuDeviceGetCount
  0.00%  1.6150us         1  1.6150us  1.6150us  1.6150us  cudaConfigureCall
  0.00%     573ns         2     286ns     224ns     349ns  cuDeviceGet
Wed Oct  5 19:49:02 MSK 2016
end calculations
