start calculations
Thu Sep 29 16:55:28 MSK 2016
np = 24
FFTW test 
N x N = 85000 x 85000

Overall memory allocated for one array: 110245 Mb
Memory allocated on the core 0: 4593.96 Mb
Forward DFT...
One Distributed Forward 2d DFT time: 110.289s
FLOPs for one forward DFT: 4.58631e+11 adds, 1.72436e+11 mults, 3.86665e+11 fmas
Total time: 167.39s
Thu Sep 29 16:58:16 MSK 2016
end calculations
