start calculations
Fri Sep 30 15:20:46 MSK 2016
np = 2

FFT test (fftw)
N x N = 1000 x 1000
Overall memory allocated for one array: 15.2588 Mb
Memory allocated on the core 0: 7.62939 Mb
Forward DFT...
One Distributed Forward 2d DFT time: 0.0857015s
FLOPs for one forward DFT: 4.74e+07 adds, 2.26e+07 mults, 1.84e+07 fmas

FFT test (fftw)
N x N = 1000 x 1000
Overall memory allocated for one array: 15.2588 Mb
Memory allocated on the core 0: 7.62939 Mb
Forward DFT...
One Distributed Forward 2d DFT time: 0.0849794s
FLOPs for one forward DFT: 4.74e+07 adds, 2.26e+07 mults, 1.84e+07 fmas

FFT test (fftw)
N x N = 1000 x 1000
Overall memory allocated for one array: 15.2588 Mb
Memory allocated on the core 0: 7.62939 Mb
Forward DFT...
One Distributed Forward 2d DFT time: 0.0858299s
FLOPs for one forward DFT: 4.74e+07 adds, 2.26e+07 mults, 1.84e+07 fmas

FFT test (fftw)
N x N = 1000 x 1000
Overall memory allocated for one array: 15.2588 Mb
Memory allocated on the core 0: 7.62939 Mb
Forward DFT...
One Distributed Forward 2d DFT time: 0.0833168s
FLOPs for one forward DFT: 4.74e+07 adds, 2.26e+07 mults, 1.84e+07 fmas

FFT test (fftw)
N x N = 1000 x 1000
Overall memory allocated for one array: 15.2588 Mb
Memory allocated on the core 0: 7.62939 Mb
Forward DFT...
One Distributed Forward 2d DFT time: 0.0906244s
FLOPs for one forward DFT: 4.74e+07 adds, 2.26e+07 mults, 1.84e+07 fmas

FFT test (fftw)
N x N = 1000 x 1000
Overall memory allocated for one array: 15.2588 Mb
Memory allocated on the core 0: 7.62939 Mb
Forward DFT...
One Distributed Forward 2d DFT time: 0.0871354s
FLOPs for one forward DFT: 4.74e+07 adds, 2.26e+07 mults, 1.84e+07 fmas

FFT test (fftw)
N x N = 1000 x 1000
Overall memory allocated for one array: 15.2588 Mb
Memory allocated on the core 0: 7.62939 Mb
Forward DFT...
One Distributed Forward 2d DFT time: 0.0834523s
FLOPs for one forward DFT: 4.74e+07 adds, 2.26e+07 mults, 1.84e+07 fmas

FFT test (fftw)
N x N = 1000 x 1000
Overall memory allocated for one array: 15.2588 Mb
Memory allocated on the core 0: 7.62939 Mb
Forward DFT...
One Distributed Forward 2d DFT time: 0.083744s
FLOPs for one forward DFT: 4.74e+07 adds, 2.26e+07 mults, 1.84e+07 fmas

FFT test (fftw)
N x N = 1000 x 1000
Overall memory allocated for one array: 15.2588 Mb
Memory allocated on the core 0: 7.62939 Mb
Forward DFT...
One Distributed Forward 2d DFT time: 0.0814755s
FLOPs for one forward DFT: 4.74e+07 adds, 2.26e+07 mults, 1.84e+07 fmas

FFT test (fftw)
N x N = 1000 x 1000
Overall memory allocated for one array: 15.2588 Mb
Memory allocated on the core 0: 7.62939 Mb
Forward DFT...
One Distributed Forward 2d DFT time: 0.0829734s
FLOPs for one forward DFT: 4.74e+07 adds, 2.26e+07 mults, 1.84e+07 fmas

FFT test (fftw)
N x N = 1000 x 1000
Overall memory allocated for one array: 15.2588 Mb
Memory allocated on the core 0: 7.62939 Mb
Forward DFT...
One Distributed Forward 2d DFT time: 0.0854419s
FLOPs for one forward DFT: 4.74e+07 adds, 2.26e+07 mults, 1.84e+07 fmas

FFT test (fftw)
N x N = 1000 x 1000
Overall memory allocated for one array: 15.2588 Mb
Memory allocated on the core 0: 7.62939 Mb
Forward DFT...
One Distributed Forward 2d DFT time: 0.0848195s
FLOPs for one forward DFT: 4.74e+07 adds, 2.26e+07 mults, 1.84e+07 fmas

FFT test (fftw)
N x N = 1000 x 1000
Overall memory allocated for one array: 15.2588 Mb
Memory allocated on the core 0: 7.62939 Mb
Forward DFT...
One Distributed Forward 2d DFT time: 0.083677s
FLOPs for one forward DFT: 4.74e+07 adds, 2.26e+07 mults, 1.84e+07 fmas

FFT test (fftw)
N x N = 1000 x 1000
Overall memory allocated for one array: 15.2588 Mb
Memory allocated on the core 0: 7.62939 Mb
Forward DFT...
One Distributed Forward 2d DFT time: 0.08384s
FLOPs for one forward DFT: 4.74e+07 adds, 2.26e+07 mults, 1.84e+07 fmas

FFT test (fftw)
N x N = 1000 x 1000
Overall memory allocated for one array: 15.2588 Mb
Memory allocated on the core 0: 7.62939 Mb
Forward DFT...
One Distributed Forward 2d DFT time: 0.084604s
FLOPs for one forward DFT: 4.74e+07 adds, 2.26e+07 mults, 1.84e+07 fmas

FFT test (fftw)
N x N = 1000 x 1000
Overall memory allocated for one array: 15.2588 Mb
Memory allocated on the core 0: 7.62939 Mb
Forward DFT...
One Distributed Forward 2d DFT time: 0.0843544s
FLOPs for one forward DFT: 4.74e+07 adds, 2.26e+07 mults, 1.84e+07 fmas

FFT test (fftw)
N x N = 1000 x 1000
Overall memory allocated for one array: 15.2588 Mb
Memory allocated on the core 0: 7.62939 Mb
Forward DFT...
One Distributed Forward 2d DFT time: 0.0845262s
FLOPs for one forward DFT: 4.74e+07 adds, 2.26e+07 mults, 1.84e+07 fmas

FFT test (fftw)
N x N = 1000 x 1000
Overall memory allocated for one array: 15.2588 Mb
Memory allocated on the core 0: 7.62939 Mb
Forward DFT...
One Distributed Forward 2d DFT time: 0.0874229s
FLOPs for one forward DFT: 4.74e+07 adds, 2.26e+07 mults, 1.84e+07 fmas

FFT test (fftw)
N x N = 1000 x 1000
Overall memory allocated for one array: 15.2588 Mb
Memory allocated on the core 0: 7.62939 Mb
Forward DFT...
One Distributed Forward 2d DFT time: 0.087555s
FLOPs for one forward DFT: 4.74e+07 adds, 2.26e+07 mults, 1.84e+07 fmas

FFT test (fftw)
N x N = 1000 x 1000
Overall memory allocated for one array: 15.2588 Mb
Memory allocated on the core 0: 7.62939 Mb
Forward DFT...
One Distributed Forward 2d DFT time: 0.0860749s
FLOPs for one forward DFT: 4.74e+07 adds, 2.26e+07 mults, 1.84e+07 fmas

FFT test (fftw)
N x N = 1000 x 1000
Overall memory allocated for one array: 15.2588 Mb
Memory allocated on the core 0: 7.62939 Mb
Forward DFT...
One Distributed Forward 2d DFT time: 0.0828416s
FLOPs for one forward DFT: 4.74e+07 adds, 2.26e+07 mults, 1.84e+07 fmas

FFT test (fftw)
N x N = 1000 x 1000
Overall memory allocated for one array: 15.2588 Mb
Memory allocated on the core 0: 7.62939 Mb
Forward DFT...
One Distributed Forward 2d DFT time: 0.0843438s
FLOPs for one forward DFT: 4.74e+07 adds, 2.26e+07 mults, 1.84e+07 fmas

FFT test (fftw)
N x N = 1000 x 1000
Overall memory allocated for one array: 15.2588 Mb
Memory allocated on the core 0: 7.62939 Mb
Forward DFT...
One Distributed Forward 2d DFT time: 0.0829568s
FLOPs for one forward DFT: 4.74e+07 adds, 2.26e+07 mults, 1.84e+07 fmas

FFT test (fftw)
N x N = 1000 x 1000
Overall memory allocated for one array: 15.2588 Mb
Memory allocated on the core 0: 7.62939 Mb
Forward DFT...
One Distributed Forward 2d DFT time: 0.09s
FLOPs for one forward DFT: 4.74e+07 adds, 2.26e+07 mults, 1.84e+07 fmas

FFT test (fftw)
N x N = 1000 x 1000
Overall memory allocated for one array: 15.2588 Mb
Memory allocated on the core 0: 7.62939 Mb
Forward DFT...
One Distributed Forward 2d DFT time: 0.0823817s
FLOPs for one forward DFT: 4.74e+07 adds, 2.26e+07 mults, 1.84e+07 fmas

FFT test (fftw)
N x N = 1000 x 1000
Overall memory allocated for one array: 15.2588 Mb
Memory allocated on the core 0: 7.62939 Mb
Forward DFT...
One Distributed Forward 2d DFT time: 0.0837668s
FLOPs for one forward DFT: 4.74e+07 adds, 2.26e+07 mults, 1.84e+07 fmas

FFT test (fftw)
N x N = 1000 x 1000
Overall memory allocated for one array: 15.2588 Mb
Memory allocated on the core 0: 7.62939 Mb
Forward DFT...
One Distributed Forward 2d DFT time: 0.0811598s
FLOPs for one forward DFT: 4.74e+07 adds, 2.26e+07 mults, 1.84e+07 fmas

FFT test (fftw)
N x N = 1000 x 1000
Overall memory allocated for one array: 15.2588 Mb
Memory allocated on the core 0: 7.62939 Mb
Forward DFT...
One Distributed Forward 2d DFT time: 0.082052s
FLOPs for one forward DFT: 4.74e+07 adds, 2.26e+07 mults, 1.84e+07 fmas

FFT test (fftw)
N x N = 1000 x 1000
Overall memory allocated for one array: 15.2588 Mb
Memory allocated on the core 0: 7.62939 Mb
Forward DFT...
One Distributed Forward 2d DFT time: 0.0849023s
FLOPs for one forward DFT: 4.74e+07 adds, 2.26e+07 mults, 1.84e+07 fmas

FFT test (fftw)
N x N = 1000 x 1000
Overall memory allocated for one array: 15.2588 Mb
Memory allocated on the core 0: 7.62939 Mb
Forward DFT...
One Distributed Forward 2d DFT time: 0.0827901s
FLOPs for one forward DFT: 4.74e+07 adds, 2.26e+07 mults, 1.84e+07 fmas

FFT test (fftw)
N x N = 1000 x 1000
Overall memory allocated for one array: 15.2588 Mb
Memory allocated on the core 0: 7.62939 Mb
Forward DFT...
One Distributed Forward 2d DFT time: 0.0844902s
FLOPs for one forward DFT: 4.74e+07 adds, 2.26e+07 mults, 1.84e+07 fmas

FFT test (fftw)
N x N = 1000 x 1000
Overall memory allocated for one array: 15.2588 Mb
Memory allocated on the core 0: 7.62939 Mb
Forward DFT...
One Distributed Forward 2d DFT time: 0.0818818s
FLOPs for one forward DFT: 4.74e+07 adds, 2.26e+07 mults, 1.84e+07 fmas

FFT test (fftw)
N x N = 1000 x 1000
Overall memory allocated for one array: 15.2588 Mb
Memory allocated on the core 0: 7.62939 Mb
Forward DFT...
One Distributed Forward 2d DFT time: 0.0850759s
FLOPs for one forward DFT: 4.74e+07 adds, 2.26e+07 mults, 1.84e+07 fmas

FFT test (fftw)
N x N = 1000 x 1000
Overall memory allocated for one array: 15.2588 Mb
Memory allocated on the core 0: 7.62939 Mb
Forward DFT...
One Distributed Forward 2d DFT time: 0.0829194s
FLOPs for one forward DFT: 4.74e+07 adds, 2.26e+07 mults, 1.84e+07 fmas

FFT test (fftw)
N x N = 1000 x 1000
Overall memory allocated for one array: 15.2588 Mb
Memory allocated on the core 0: 7.62939 Mb
Forward DFT...
One Distributed Forward 2d DFT time: 0.0865933s
FLOPs for one forward DFT: 4.74e+07 adds, 2.26e+07 mults, 1.84e+07 fmas

FFT test (fftw)
N x N = 1000 x 1000
Overall memory allocated for one array: 15.2588 Mb
Memory allocated on the core 0: 7.62939 Mb
Forward DFT...
One Distributed Forward 2d DFT time: 0.0843347s
FLOPs for one forward DFT: 4.74e+07 adds, 2.26e+07 mults, 1.84e+07 fmas

FFT test (fftw)
N x N = 1000 x 1000
Overall memory allocated for one array: 15.2588 Mb
Memory allocated on the core 0: 7.62939 Mb
Forward DFT...
One Distributed Forward 2d DFT time: 0.0833413s
FLOPs for one forward DFT: 4.74e+07 adds, 2.26e+07 mults, 1.84e+07 fmas

FFT test (fftw)
N x N = 1000 x 1000
Overall memory allocated for one array: 15.2588 Mb
Memory allocated on the core 0: 7.62939 Mb
Forward DFT...
One Distributed Forward 2d DFT time: 0.0823448s
FLOPs for one forward DFT: 4.74e+07 adds, 2.26e+07 mults, 1.84e+07 fmas

FFT test (fftw)
N x N = 1000 x 1000
Overall memory allocated for one array: 15.2588 Mb
Memory allocated on the core 0: 7.62939 Mb
Forward DFT...
One Distributed Forward 2d DFT time: 0.0845295s
FLOPs for one forward DFT: 4.74e+07 adds, 2.26e+07 mults, 1.84e+07 fmas

FFT test (fftw)
N x N = 1000 x 1000
Overall memory allocated for one array: 15.2588 Mb
Memory allocated on the core 0: 7.62939 Mb
Forward DFT...
One Distributed Forward 2d DFT time: 0.0834225s
FLOPs for one forward DFT: 4.74e+07 adds, 2.26e+07 mults, 1.84e+07 fmas

FFT test (fftw)
N x N = 1000 x 1000
Overall memory allocated for one array: 15.2588 Mb
Memory allocated on the core 0: 7.62939 Mb
Forward DFT...
One Distributed Forward 2d DFT time: 0.0841489s
FLOPs for one forward DFT: 4.74e+07 adds, 2.26e+07 mults, 1.84e+07 fmas

FFT test (fftw)
N x N = 1000 x 1000
Overall memory allocated for one array: 15.2588 Mb
Memory allocated on the core 0: 7.62939 Mb
Forward DFT...
One Distributed Forward 2d DFT time: 0.0842945s
FLOPs for one forward DFT: 4.74e+07 adds, 2.26e+07 mults, 1.84e+07 fmas

FFT test (fftw)
N x N = 1000 x 1000
Overall memory allocated for one array: 15.2588 Mb
Memory allocated on the core 0: 7.62939 Mb
Forward DFT...
One Distributed Forward 2d DFT time: 0.0835156s
FLOPs for one forward DFT: 4.74e+07 adds, 2.26e+07 mults, 1.84e+07 fmas

FFT test (fftw)
N x N = 1000 x 1000
Overall memory allocated for one array: 15.2588 Mb
Memory allocated on the core 0: 7.62939 Mb
Forward DFT...
One Distributed Forward 2d DFT time: 0.0853282s
FLOPs for one forward DFT: 4.74e+07 adds, 2.26e+07 mults, 1.84e+07 fmas

FFT test (fftw)
N x N = 1000 x 1000
Overall memory allocated for one array: 15.2588 Mb
Memory allocated on the core 0: 7.62939 Mb
Forward DFT...
One Distributed Forward 2d DFT time: 0.0883296s
FLOPs for one forward DFT: 4.74e+07 adds, 2.26e+07 mults, 1.84e+07 fmas

FFT test (fftw)
N x N = 1000 x 1000
Overall memory allocated for one array: 15.2588 Mb
Memory allocated on the core 0: 7.62939 Mb
Forward DFT...
One Distributed Forward 2d DFT time: 0.0829287s
FLOPs for one forward DFT: 4.74e+07 adds, 2.26e+07 mults, 1.84e+07 fmas

FFT test (fftw)
N x N = 1000 x 1000
Overall memory allocated for one array: 15.2588 Mb
Memory allocated on the core 0: 7.62939 Mb
Forward DFT...
One Distributed Forward 2d DFT time: 0.0825086s
FLOPs for one forward DFT: 4.74e+07 adds, 2.26e+07 mults, 1.84e+07 fmas

FFT test (fftw)
N x N = 1000 x 1000
Overall memory allocated for one array: 15.2588 Mb
Memory allocated on the core 0: 7.62939 Mb
Forward DFT...
One Distributed Forward 2d DFT time: 0.0841625s
FLOPs for one forward DFT: 4.74e+07 adds, 2.26e+07 mults, 1.84e+07 fmas

FFT test (fftw)
N x N = 1000 x 1000
Overall memory allocated for one array: 15.2588 Mb
Memory allocated on the core 0: 7.62939 Mb
Forward DFT...
One Distributed Forward 2d DFT time: 0.0833788s
FLOPs for one forward DFT: 4.74e+07 adds, 2.26e+07 mults, 1.84e+07 fmas

FFT test (fftw)
N x N = 1000 x 1000
Overall memory allocated for one array: 15.2588 Mb
Memory allocated on the core 0: 7.62939 Mb
Forward DFT...
One Distributed Forward 2d DFT time: 0.0840114s
FLOPs for one forward DFT: 4.74e+07 adds, 2.26e+07 mults, 1.84e+07 fmas

FFT test (fftw)
N x N = 1000 x 1000
Overall memory allocated for one array: 15.2588 Mb
Memory allocated on the core 0: 7.62939 Mb
Forward DFT...
One Distributed Forward 2d DFT time: 0.0861151s
FLOPs for one forward DFT: 4.74e+07 adds, 2.26e+07 mults, 1.84e+07 fmas

FFT test (fftw)
N x N = 1000 x 1000
Overall memory allocated for one array: 15.2588 Mb
Memory allocated on the core 0: 7.62939 Mb
Forward DFT...
One Distributed Forward 2d DFT time: 0.0862312s
FLOPs for one forward DFT: 4.74e+07 adds, 2.26e+07 mults, 1.84e+07 fmas

FFT test (fftw)
N x N = 1000 x 1000
Overall memory allocated for one array: 15.2588 Mb
Memory allocated on the core 0: 7.62939 Mb
Forward DFT...
One Distributed Forward 2d DFT time: 0.0865051s
FLOPs for one forward DFT: 4.74e+07 adds, 2.26e+07 mults, 1.84e+07 fmas

FFT test (fftw)
N x N = 1000 x 1000
Overall memory allocated for one array: 15.2588 Mb
Memory allocated on the core 0: 7.62939 Mb
Forward DFT...
One Distributed Forward 2d DFT time: 0.0844844s
FLOPs for one forward DFT: 4.74e+07 adds, 2.26e+07 mults, 1.84e+07 fmas

FFT test (fftw)
N x N = 1000 x 1000
Overall memory allocated for one array: 15.2588 Mb
Memory allocated on the core 0: 7.62939 Mb
Forward DFT...
One Distributed Forward 2d DFT time: 0.0824924s
FLOPs for one forward DFT: 4.74e+07 adds, 2.26e+07 mults, 1.84e+07 fmas

FFT test (fftw)
N x N = 1000 x 1000
Overall memory allocated for one array: 15.2588 Mb
Memory allocated on the core 0: 7.62939 Mb
Forward DFT...
One Distributed Forward 2d DFT time: 0.082963s
FLOPs for one forward DFT: 4.74e+07 adds, 2.26e+07 mults, 1.84e+07 fmas

FFT test (fftw)
N x N = 1000 x 1000
Overall memory allocated for one array: 15.2588 Mb
Memory allocated on the core 0: 7.62939 Mb
Forward DFT...
One Distributed Forward 2d DFT time: 0.0851204s
FLOPs for one forward DFT: 4.74e+07 adds, 2.26e+07 mults, 1.84e+07 fmas

FFT test (fftw)
N x N = 1000 x 1000
Overall memory allocated for one array: 15.2588 Mb
Memory allocated on the core 0: 7.62939 Mb
Forward DFT...
One Distributed Forward 2d DFT time: 0.0834204s
FLOPs for one forward DFT: 4.74e+07 adds, 2.26e+07 mults, 1.84e+07 fmas

FFT test (fftw)
N x N = 1000 x 1000
Overall memory allocated for one array: 15.2588 Mb
Memory allocated on the core 0: 7.62939 Mb
Forward DFT...
One Distributed Forward 2d DFT time: 0.0828352s
FLOPs for one forward DFT: 4.74e+07 adds, 2.26e+07 mults, 1.84e+07 fmas

FFT test (fftw)
N x N = 1000 x 1000
Overall memory allocated for one array: 15.2588 Mb
Memory allocated on the core 0: 7.62939 Mb
Forward DFT...
One Distributed Forward 2d DFT time: 0.0845435s
FLOPs for one forward DFT: 4.74e+07 adds, 2.26e+07 mults, 1.84e+07 fmas

FFT test (fftw)
N x N = 1000 x 1000
Overall memory allocated for one array: 15.2588 Mb
Memory allocated on the core 0: 7.62939 Mb
Forward DFT...
One Distributed Forward 2d DFT time: 0.0853263s
FLOPs for one forward DFT: 4.74e+07 adds, 2.26e+07 mults, 1.84e+07 fmas

FFT test (fftw)
N x N = 1000 x 1000
Overall memory allocated for one array: 15.2588 Mb
Memory allocated on the core 0: 7.62939 Mb
Forward DFT...
One Distributed Forward 2d DFT time: 0.0833772s
FLOPs for one forward DFT: 4.74e+07 adds, 2.26e+07 mults, 1.84e+07 fmas

FFT test (fftw)
N x N = 1000 x 1000
Overall memory allocated for one array: 15.2588 Mb
Memory allocated on the core 0: 7.62939 Mb
Forward DFT...
One Distributed Forward 2d DFT time: 0.0840577s
FLOPs for one forward DFT: 4.74e+07 adds, 2.26e+07 mults, 1.84e+07 fmas

FFT test (fftw)
N x N = 1000 x 1000
Overall memory allocated for one array: 15.2588 Mb
Memory allocated on the core 0: 7.62939 Mb
Forward DFT...
One Distributed Forward 2d DFT time: 0.0857285s
FLOPs for one forward DFT: 4.74e+07 adds, 2.26e+07 mults, 1.84e+07 fmas

FFT test (fftw)
N x N = 1000 x 1000
Overall memory allocated for one array: 15.2588 Mb
Memory allocated on the core 0: 7.62939 Mb
Forward DFT...
One Distributed Forward 2d DFT time: 0.0849326s
FLOPs for one forward DFT: 4.74e+07 adds, 2.26e+07 mults, 1.84e+07 fmas

FFT test (fftw)
N x N = 1000 x 1000
Overall memory allocated for one array: 15.2588 Mb
Memory allocated on the core 0: 7.62939 Mb
Forward DFT...
One Distributed Forward 2d DFT time: 0.0858861s
FLOPs for one forward DFT: 4.74e+07 adds, 2.26e+07 mults, 1.84e+07 fmas

FFT test (fftw)
N x N = 1000 x 1000
Overall memory allocated for one array: 15.2588 Mb
Memory allocated on the core 0: 7.62939 Mb
Forward DFT...
One Distributed Forward 2d DFT time: 0.0840436s
FLOPs for one forward DFT: 4.74e+07 adds, 2.26e+07 mults, 1.84e+07 fmas

FFT test (fftw)
N x N = 1000 x 1000
Overall memory allocated for one array: 15.2588 Mb
Memory allocated on the core 0: 7.62939 Mb
Forward DFT...
One Distributed Forward 2d DFT time: 0.0858098s
FLOPs for one forward DFT: 4.74e+07 adds, 2.26e+07 mults, 1.84e+07 fmas

FFT test (fftw)
N x N = 1000 x 1000
Overall memory allocated for one array: 15.2588 Mb
Memory allocated on the core 0: 7.62939 Mb
Forward DFT...
One Distributed Forward 2d DFT time: 0.0831476s
FLOPs for one forward DFT: 4.74e+07 adds, 2.26e+07 mults, 1.84e+07 fmas

FFT test (fftw)
N x N = 1000 x 1000
Overall memory allocated for one array: 15.2588 Mb
Memory allocated on the core 0: 7.62939 Mb
Forward DFT...
One Distributed Forward 2d DFT time: 0.0851632s
FLOPs for one forward DFT: 4.74e+07 adds, 2.26e+07 mults, 1.84e+07 fmas

FFT test (fftw)
N x N = 1000 x 1000
Overall memory allocated for one array: 15.2588 Mb
Memory allocated on the core 0: 7.62939 Mb
Forward DFT...
One Distributed Forward 2d DFT time: 0.082622s
FLOPs for one forward DFT: 4.74e+07 adds, 2.26e+07 mults, 1.84e+07 fmas

FFT test (fftw)
N x N = 1000 x 1000
Overall memory allocated for one array: 15.2588 Mb
Memory allocated on the core 0: 7.62939 Mb
Forward DFT...
One Distributed Forward 2d DFT time: 0.081145s
FLOPs for one forward DFT: 4.74e+07 adds, 2.26e+07 mults, 1.84e+07 fmas

FFT test (fftw)
N x N = 1000 x 1000
Overall memory allocated for one array: 15.2588 Mb
Memory allocated on the core 0: 7.62939 Mb
Forward DFT...
One Distributed Forward 2d DFT time: 0.0850879s
FLOPs for one forward DFT: 4.74e+07 adds, 2.26e+07 mults, 1.84e+07 fmas

FFT test (fftw)
N x N = 1000 x 1000
Overall memory allocated for one array: 15.2588 Mb
Memory allocated on the core 0: 7.62939 Mb
Forward DFT...
One Distributed Forward 2d DFT time: 0.084639s
FLOPs for one forward DFT: 4.74e+07 adds, 2.26e+07 mults, 1.84e+07 fmas

FFT test (fftw)
N x N = 1000 x 1000
Overall memory allocated for one array: 15.2588 Mb
Memory allocated on the core 0: 7.62939 Mb
Forward DFT...
One Distributed Forward 2d DFT time: 0.0829882s
FLOPs for one forward DFT: 4.74e+07 adds, 2.26e+07 mults, 1.84e+07 fmas

FFT test (fftw)
N x N = 1000 x 1000
Overall memory allocated for one array: 15.2588 Mb
Memory allocated on the core 0: 7.62939 Mb
Forward DFT...
One Distributed Forward 2d DFT time: 0.0830435s
FLOPs for one forward DFT: 4.74e+07 adds, 2.26e+07 mults, 1.84e+07 fmas

FFT test (fftw)
N x N = 1000 x 1000
Overall memory allocated for one array: 15.2588 Mb
Memory allocated on the core 0: 7.62939 Mb
Forward DFT...
One Distributed Forward 2d DFT time: 0.0824044s
FLOPs for one forward DFT: 4.74e+07 adds, 2.26e+07 mults, 1.84e+07 fmas

FFT test (fftw)
N x N = 1000 x 1000
Overall memory allocated for one array: 15.2588 Mb
Memory allocated on the core 0: 7.62939 Mb
Forward DFT...
One Distributed Forward 2d DFT time: 0.0897319s
FLOPs for one forward DFT: 4.74e+07 adds, 2.26e+07 mults, 1.84e+07 fmas

FFT test (fftw)
N x N = 1000 x 1000
Overall memory allocated for one array: 15.2588 Mb
Memory allocated on the core 0: 7.62939 Mb
Forward DFT...
One Distributed Forward 2d DFT time: 0.0843386s
FLOPs for one forward DFT: 4.74e+07 adds, 2.26e+07 mults, 1.84e+07 fmas

FFT test (fftw)
N x N = 1000 x 1000
Overall memory allocated for one array: 15.2588 Mb
Memory allocated on the core 0: 7.62939 Mb
Forward DFT...
One Distributed Forward 2d DFT time: 0.0861403s
FLOPs for one forward DFT: 4.74e+07 adds, 2.26e+07 mults, 1.84e+07 fmas

FFT test (fftw)
N x N = 1000 x 1000
Overall memory allocated for one array: 15.2588 Mb
Memory allocated on the core 0: 7.62939 Mb
Forward DFT...
One Distributed Forward 2d DFT time: 0.0821153s
FLOPs for one forward DFT: 4.74e+07 adds, 2.26e+07 mults, 1.84e+07 fmas

FFT test (fftw)
N x N = 1000 x 1000
Overall memory allocated for one array: 15.2588 Mb
Memory allocated on the core 0: 7.62939 Mb
Forward DFT...
One Distributed Forward 2d DFT time: 0.0839509s
FLOPs for one forward DFT: 4.74e+07 adds, 2.26e+07 mults, 1.84e+07 fmas

FFT test (fftw)
N x N = 1000 x 1000
Overall memory allocated for one array: 15.2588 Mb
Memory allocated on the core 0: 7.62939 Mb
Forward DFT...
One Distributed Forward 2d DFT time: 0.0823747s
FLOPs for one forward DFT: 4.74e+07 adds, 2.26e+07 mults, 1.84e+07 fmas

FFT test (fftw)
N x N = 1000 x 1000
Overall memory allocated for one array: 15.2588 Mb
Memory allocated on the core 0: 7.62939 Mb
Forward DFT...
One Distributed Forward 2d DFT time: 0.0876447s
FLOPs for one forward DFT: 4.74e+07 adds, 2.26e+07 mults, 1.84e+07 fmas

FFT test (fftw)
N x N = 1000 x 1000
Overall memory allocated for one array: 15.2588 Mb
Memory allocated on the core 0: 7.62939 Mb
Forward DFT...
One Distributed Forward 2d DFT time: 0.0854059s
FLOPs for one forward DFT: 4.74e+07 adds, 2.26e+07 mults, 1.84e+07 fmas

FFT test (fftw)
N x N = 1000 x 1000
Overall memory allocated for one array: 15.2588 Mb
Memory allocated on the core 0: 7.62939 Mb
Forward DFT...
One Distributed Forward 2d DFT time: 0.0826534s
FLOPs for one forward DFT: 4.74e+07 adds, 2.26e+07 mults, 1.84e+07 fmas

FFT test (fftw)
N x N = 1000 x 1000
Overall memory allocated for one array: 15.2588 Mb
Memory allocated on the core 0: 7.62939 Mb
Forward DFT...
One Distributed Forward 2d DFT time: 0.087533s
FLOPs for one forward DFT: 4.74e+07 adds, 2.26e+07 mults, 1.84e+07 fmas

FFT test (fftw)
N x N = 1000 x 1000
Overall memory allocated for one array: 15.2588 Mb
Memory allocated on the core 0: 7.62939 Mb
Forward DFT...
One Distributed Forward 2d DFT time: 0.0847907s
FLOPs for one forward DFT: 4.74e+07 adds, 2.26e+07 mults, 1.84e+07 fmas

FFT test (fftw)
N x N = 1000 x 1000
Overall memory allocated for one array: 15.2588 Mb
Memory allocated on the core 0: 7.62939 Mb
Forward DFT...
One Distributed Forward 2d DFT time: 0.084201s
FLOPs for one forward DFT: 4.74e+07 adds, 2.26e+07 mults, 1.84e+07 fmas

FFT test (fftw)
N x N = 1000 x 1000
Overall memory allocated for one array: 15.2588 Mb
Memory allocated on the core 0: 7.62939 Mb
Forward DFT...
One Distributed Forward 2d DFT time: 0.0835317s
FLOPs for one forward DFT: 4.74e+07 adds, 2.26e+07 mults, 1.84e+07 fmas

FFT test (fftw)
N x N = 1000 x 1000
Overall memory allocated for one array: 15.2588 Mb
Memory allocated on the core 0: 7.62939 Mb
Forward DFT...
One Distributed Forward 2d DFT time: 0.0837236s
FLOPs for one forward DFT: 4.74e+07 adds, 2.26e+07 mults, 1.84e+07 fmas

FFT test (fftw)
N x N = 1000 x 1000
Overall memory allocated for one array: 15.2588 Mb
Memory allocated on the core 0: 7.62939 Mb
Forward DFT...
One Distributed Forward 2d DFT time: 0.0833758s
FLOPs for one forward DFT: 4.74e+07 adds, 2.26e+07 mults, 1.84e+07 fmas

FFT test (fftw)
N x N = 1000 x 1000
Overall memory allocated for one array: 15.2588 Mb
Memory allocated on the core 0: 7.62939 Mb
Forward DFT...
One Distributed Forward 2d DFT time: 0.0841659s
FLOPs for one forward DFT: 4.74e+07 adds, 2.26e+07 mults, 1.84e+07 fmas

FFT test (fftw)
N x N = 1000 x 1000
Overall memory allocated for one array: 15.2588 Mb
Memory allocated on the core 0: 7.62939 Mb
Forward DFT...
One Distributed Forward 2d DFT time: 0.0826707s
FLOPs for one forward DFT: 4.74e+07 adds, 2.26e+07 mults, 1.84e+07 fmas

FFT test (fftw)
N x N = 1000 x 1000
Overall memory allocated for one array: 15.2588 Mb
Memory allocated on the core 0: 7.62939 Mb
Forward DFT...
One Distributed Forward 2d DFT time: 0.0831809s
FLOPs for one forward DFT: 4.74e+07 adds, 2.26e+07 mults, 1.84e+07 fmas

FFT test (fftw)
N x N = 1000 x 1000
Overall memory allocated for one array: 15.2588 Mb
Memory allocated on the core 0: 7.62939 Mb
Forward DFT...
One Distributed Forward 2d DFT time: 0.0826313s
FLOPs for one forward DFT: 4.74e+07 adds, 2.26e+07 mults, 1.84e+07 fmas

FFT test (fftw)
N x N = 1000 x 1000
Overall memory allocated for one array: 15.2588 Mb
Memory allocated on the core 0: 7.62939 Mb
Forward DFT...
One Distributed Forward 2d DFT time: 0.0834409s
FLOPs for one forward DFT: 4.74e+07 adds, 2.26e+07 mults, 1.84e+07 fmas

FFT test (fftw)
N x N = 1000 x 1000
Overall memory allocated for one array: 15.2588 Mb
Memory allocated on the core 0: 7.62939 Mb
Forward DFT...
One Distributed Forward 2d DFT time: 0.0854801s
FLOPs for one forward DFT: 4.74e+07 adds, 2.26e+07 mults, 1.84e+07 fmas

FFT test (fftw)
N x N = 1000 x 1000
Overall memory allocated for one array: 15.2588 Mb
Memory allocated on the core 0: 7.62939 Mb
Forward DFT...
One Distributed Forward 2d DFT time: 0.0841676s
FLOPs for one forward DFT: 4.74e+07 adds, 2.26e+07 mults, 1.84e+07 fmas

FFT test (fftw)
N x N = 1000 x 1000
Overall memory allocated for one array: 15.2588 Mb
Memory allocated on the core 0: 7.62939 Mb
Forward DFT...
One Distributed Forward 2d DFT time: 0.0853496s
FLOPs for one forward DFT: 4.74e+07 adds, 2.26e+07 mults, 1.84e+07 fmas

FFT test (fftw)
N x N = 1000 x 1000
Overall memory allocated for one array: 15.2588 Mb
Memory allocated on the core 0: 7.62939 Mb
Forward DFT...
One Distributed Forward 2d DFT time: 0.0848893s
FLOPs for one forward DFT: 4.74e+07 adds, 2.26e+07 mults, 1.84e+07 fmas

FFT test (fftw)
N x N = 1000 x 1000
Overall memory allocated for one array: 15.2588 Mb
Memory allocated on the core 0: 7.62939 Mb
Forward DFT...
One Distributed Forward 2d DFT time: 0.0865937s
FLOPs for one forward DFT: 4.74e+07 adds, 2.26e+07 mults, 1.84e+07 fmas

FFT test (fftw)
N x N = 1000 x 1000
Overall memory allocated for one array: 15.2588 Mb
Memory allocated on the core 0: 7.62939 Mb
slurmstepd: error: *** JOB 26877 ON blade06 CANCELLED AT 2016-09-30T15:22:14 DUE TO TIME LIMIT ***
mpiexec: Forwarding signal 18 to job
