start calculations
Fri Sep 30 15:48:57 MSK 2016
np = 24
N1=60000 N2=60000 dN=5000

FFT test (fftw)
N x N = 60000 x 60000
Overall memory allocated for one array: 54931.6 Mb
Memory allocated on the core 0: 2288.82 Mb
Forward DFT...
One Distributed Forward 2d DFT time: 39.0384s
FLOPs for one forward DFT: 2.6448e+11 adds, 1.2612e+11 mults, 1.074e+11 fmas

FFT test (fftw)
N x N = 65000 x 65000
Overall memory allocated for one array: 64468.4 Mb
Memory allocated on the core 0: 2686.84 Mb
Forward DFT...
One Distributed Forward 2d DFT time: 62.9707s
FLOPs for one forward DFT: 3.3813e+11 adds, 1.61882e+11 mults, 1.45112e+11 fmas

FFT test (fftw)
N x N = 70000 x 70000
Overall memory allocated for one array: 74768.1 Mb
Memory allocated on the core 0: 3115.69 Mb
Forward DFT...
One Distributed Forward 2d DFT time: 73.9757s
FLOPs for one forward DFT: 3.5812e+11 adds, 1.8193e+11 mults, 1.7325e+11 fmas

FFT test (fftw)
N x N = 75000 x 75000
Overall memory allocated for one array: 85830.7 Mb
Memory allocated on the core 0: 3576.28 Mb
Forward DFT...
One Distributed Forward 2d DFT time: 59.6767s
FLOPs for one forward DFT: 4.2e+11 adds, 2.0775e+11 mults, 1.8525e+11 fmas

FFT test (fftw)
N x N = 80000 x 80000
Overall memory allocated for one array: 97656.2 Mb
Memory allocated on the core 0: 4069.82 Mb
Forward DFT...
One Distributed Forward 2d DFT time: 98.8824s
FLOPs for one forward DFT: 4.8512e+11 adds, 2.2848e+11 mults, 1.888e+11 fmas

FFT test (fftw)
N x N = 85000 x 85000
Overall memory allocated for one array: 110245 Mb
Memory allocated on the core 0: 4593.96 Mb
Forward DFT...
One Distributed Forward 2d DFT time: 124.395s
FLOPs for one forward DFT: 4.9283e+11 adds, 2.43482e+11 mults, 4.23512e+11 fmas

Total time: 482.03s
Fri Sep 30 15:56:59 MSK 2016
end calculations
