start calculations
Sat Sep 24 14:53:19 MSK 2016
np = 24
FFTW test 
N x N = 10000 x 10000

Overall memory allocated for one array: 1525.88 Mb
Memory allocated on the core 0: 63.6292 Mb
Forward DFT...
One Distributed Forward 2d DFT time: 1.99499s
FLOPs for one forward DFT: 5.76e+09 adds, 1.98e+09 mults, 1.98e+09 fmas
Total time: 24.7208s
np = 24np = 24np = 24np = 24np = 24np = 24np = 24np = 24np = 24np = 24np = 24np = 24np = 24np = 24np = 24np = 24np = 24np = 24np = 24np = 24np = 24np = 24np = 24Sat Sep 24 14:53:44 MSK 2016
end calculations
