start calculations
Thu Sep 29 18:03:58 MSK 2016
np = 4
FFTW test 
N x N = 100 x 100

Overall memory allocated for one array: 0.152588 Mb
Memory allocated on the core 0: 0.038147 Mb
[blade03:46683] *** Process received signal ***
[blade03:46683] Signal: Segmentation fault (11)
[blade03:46683] Signal code: Address not mapped (1)
[blade03:46683] Failing at address: (nil)
[blade03:46684] *** Process received signal ***
[blade03:46684] Signal: Segmentation fault (11)
[blade03:46684] Signal code: Address not mapped (1)
[blade03:46684] Failing at address: (nil)
[blade03:46685] *** Process received signal ***
[blade03:46685] Signal: Segmentation fault (11)
[blade03:46685] Signal code: Address not mapped (1)
[blade03:46685] Failing at address: (nil)
[blade03:46682] *** Process received signal ***
[blade03:46682] Signal: Segmentation fault (11)
[blade03:46682] Signal code: Address not mapped (1)
[blade03:46682] Failing at address: (nil)
Forward DFT...
One Distributed Forward 2d DFT time: 0.000143051s
FLOPs for one forward DFT: 288000 adds, 80500 mults, 80500 fmas

FFTW test 
N x N = 100 x 100

Overall memory allocated for one array: 0.152588 Mb
Memory allocated on the core 0: 0.038147 Mb
[blade03:46683] [ 0] /lib64/libpthread.so.0[0x301b00f7e0]
[blade03:46683] [ 1] ./bin/run[0x4259b3]
[blade03:46683] [ 2] ./bin/run[0x40ae3b]
[blade03:46683] [ 3] ./bin/run[0x40b178]
[blade03:46683] [ 4] ./bin/run[0x40d373]
[blade03:46683] [ 5] /lib64/libc.so.6(__libc_start_main+0xfd)[0x301ac1ed5d]
[blade03:46683] [ 6] ./bin/run[0x409209]
[blade03:46683] *** End of error message ***
[blade03:46684] [ 0] /lib64/libpthread.so.0[0x301b00f7e0]
[blade03:46684] [ 1] ./bin/run[0x4259b3]
[blade03:46684] [ 2] ./bin/run[0x40ae3b]
[blade03:46684] [ 3] ./bin/run[0x40b178]
[blade03:46684] [ 4] ./bin/run[0x40d373]
[blade03:46684] [ 5] /lib64/libc.so.6(__libc_start_main+0xfd)[0x301ac1ed5d]
[blade03:46684] [ 6] ./bin/run[0x409209]
[blade03:46684] *** End of error message ***
[blade03:46685] [ 0] /lib64/libpthread.so.0[0x301b00f7e0]
[blade03:46685] [ 1] ./bin/run[0x4259b3]
[blade03:46685] [ 2] ./bin/run[0x40ae3b]
[blade03:46685] [ 3] ./bin/run[0x40b178]
[blade03:46685] [ 4] ./bin/run[0x40d373]
[blade03:46685] [ 5] /lib64/libc.so.6(__libc_start_main+0xfd)[0x301ac1ed5d]
[blade03:46685] [ 6] ./bin/run[0x409209]
[blade03:46685] *** End of error message ***
[blade03:46682] [ 0] /lib64/libpthread.so.0[0x301b00f7e0]
[blade03:46682] [ 1] ./bin/run[0x4259b3]
[blade03:46682] [ 2] ./bin/run[0x40ae3b]
[blade03:46682] [ 3] ./bin/run[0x40b178]
[blade03:46682] [ 4] ./bin/run[0x40d373]
[blade03:46682] [ 5] /lib64/libc.so.6(__libc_start_main+0xfd)[0x301ac1ed5d]
[blade03:46682] [ 6] ./bin/run[0x409209]
[blade03:46682] *** End of error message ***
--------------------------------------------------------------------------
mpiexec noticed that process rank 2 with PID 46684 on node blade03 exited on signal 11 (Segmentation fault).
--------------------------------------------------------------------------
Thu Sep 29 18:03:59 MSK 2016
end calculations
