start calculations
Wed Sep 28 13:55:07 MSK 2016
np = 24
FFTW test 
N x N = 40000 x 40000

Overall memory allocated for one array: 24414.1 Mb
Memory allocated on the core 0: 1017.46 Mb
Forward DFT...
One Distributed Forward 2d DFT time: 64.3155s
FLOPs for one forward DFT: 1.07363e+11 adds, 4.30333e+10 mults, 4.06299e+10 fmas
Total time: 692.28s
Wed Sep 28 14:06:40 MSK 2016
end calculations
