start calculations
Fri Sep 30 18:05:58 MSK 2016
np = 24
N1=100 N2=100 dN=100


FFTW test 
N x N = 100 x 100

Forward DFT...
Memmory allocated for one array: 0.152588 Mb
One Forward 2d DFT time: 0.00018301s
FLOPs for one forward DFT: 288000 adds, 82000 mults, 82000 fmas

FFTW test 
N x N = 200 x 200

Forward DFT...
Memmory allocated for one array: 0.610352 Mb
One Forward 2d DFT time: 0.000851107s
FLOPs for one forward DFT: 1.312e+06 adds, 336000 mults, 336000 fmas
Total time: 0.169367s
Fri Sep 30 18:05:59 MSK 2016
end calculations
