start calculations
Wed Sep 28 13:55:07 MSK 2016
np = 24
FFTW test 
N x N = 35000 x 35000

Overall memory allocated for one array: 18692 Mb
Memory allocated on the core 0: 779.19 Mb
Forward DFT...
One Distributed Forward 2d DFT time: 56.874s
FLOPs for one forward DFT: 7.87502e+10 adds, 3.31103e+10 mults, 3.68201e+10 fmas
Total time: 609.35s
Wed Sep 28 14:05:17 MSK 2016
end calculations
