start calculations
Fri Sep 30 15:10:34 MSK 2016
np = 2
FFT test (fftw)
N x N = 1000 x 1000

Forward DFT...
One Distributed Forward 2d DFT time: 0.0831585s

FFT test (fftw)
N x N = 1000 x 1000

Forward DFT...
One Distributed Forward 2d DFT time: 0.0817885s
Total time: 1.66618s
Fri Sep 30 15:10:36 MSK 2016
end calculations
