start calculations
Fri Sep 30 14:16:08 MSK 2016
np = 24
FFTW test 
N x N = 100 x 100

Overall memory allocated for one array: 0.152588 Mb
Memory allocated on the core 0: 0.00762939 Mb
Forward DFT...
One Distributed Forward 2d DFT time: 0.000766039s
FLOPs for one forward DFT: 288000 adds, 83280 mults, 83280 fmas

FFTW test 
N x N = 100 x 100

Overall memory allocated for one array: 0.152588 Mb
Memory allocated on the core 0: 0.00762939 Mb
[blade07:16022] *** Process received signal ***
[blade07:16022] Signal: Segmentation fault (11)
[blade07:16022] Signal code: Address not mapped (1)
[blade07:16022] Failing at address: (nil)
[blade07:16023] *** Process received signal ***
[blade07:16023] Signal: Segmentation fault (11)
[blade07:16023] Signal code: Address not mapped (1)
[blade07:16023] Failing at address: (nil)
[blade07:16024] *** Process received signal ***
[blade07:16024] Signal: Segmentation fault (11)
[blade07:16024] Signal code: Address not mapped (1)
[blade07:16024] Failing at address: (nil)
[blade07:16025] *** Process received signal ***
[blade07:16025] Signal: Segmentation fault (11)
[blade07:16025] Signal code: Address not mapped (1)
[blade07:16025] Failing at address: (nil)
[blade07:16026] *** Process received signal ***
[blade07:16026] Signal: Segmentation fault (11)
[blade07:16026] Signal code: Address not mapped (1)
[blade07:16026] Failing at address: (nil)
[blade07:16027] *** Process received signal ***
[blade07:16027] Signal: Segmentation fault (11)
[blade07:16027] Signal code: Address not mapped (1)
[blade07:16027] Failing at address: (nil)
[blade07:16028] *** Process received signal ***
[blade07:16028] Signal: Segmentation fault (11)
[blade07:16028] Signal code: Address not mapped (1)
[blade07:16028] Failing at address: (nil)
[blade07:16029] *** Process received signal ***
[blade07:16029] Signal: Segmentation fault (11)
[blade07:16029] Signal code: Address not mapped (1)
[blade07:16029] Failing at address: (nil)
[blade07:16030] *** Process received signal ***
[blade07:16030] Signal: Segmentation fault (11)
[blade07:16030] Signal code: Address not mapped (1)
[blade07:16030] Failing at address: (nil)
[blade07:16031] *** Process received signal ***
[blade07:16031] Signal: Segmentation fault (11)
[blade07:16031] Signal code: Address not mapped (1)
[blade07:16031] Failing at address: (nil)
[blade07:16032] *** Process received signal ***
[blade07:16032] Signal: Segmentation fault (11)
[blade07:16032] Signal code: Address not mapped (1)
[blade07:16032] Failing at address: (nil)
[blade07:16032] [ 0] [blade07:16033] *** Process received signal ***
[blade07:16033] Signal: Segmentation fault (11)
[blade07:16033] Signal code: Address not mapped (1)
[blade07:16033] Failing at address: (nil)
[blade07:16034] *** Process received signal ***
[blade07:16034] Signal: Segmentation fault (11)
[blade07:16034] Signal code: Address not mapped (1)
[blade07:16034] Failing at address: (nil)
[blade07:16035] *** Process received signal ***
[blade07:16035] Signal: Segmentation fault (11)
[blade07:16035] Signal code: Address not mapped (1)
[blade07:16035] Failing at address: (nil)
[blade07:16036] *** Process received signal ***
[blade07:16036] Signal: Segmentation fault (11)
[blade07:16036] Signal code: Address not mapped (1)
[blade07:16036] Failing at address: (nil)
[blade07:16037] *** Process received signal ***
[blade07:16037] Signal: Segmentation fault (11)
[blade07:16037] Signal code: Address not mapped (1)
[blade07:16037] Failing at address: (nil)
[blade07:16038] *** Process received signal ***
[blade07:16038] Signal: Segmentation fault (11)
[blade07:16038] Signal code: Address not mapped (1)
[blade07:16038] Failing at address: (nil)
[blade07:16039] *** Process received signal ***
[blade07:16039] Signal: Segmentation fault (11)
[blade07:16039] Signal code: Address not mapped (1)
[blade07:16039] Failing at address: (nil)
[blade07:16040] *** Process received signal ***
[blade07:16040] Signal: Segmentation fault (11)
[blade07:16040] Signal code: Address not mapped (1)
[blade07:16040] Failing at address: (nil)
[blade07:16041] *** Process received signal ***
[blade07:16041] Signal: Segmentation fault (11)
[blade07:16041] Signal code: Address not mapped (1)
[blade07:16041] Failing at address: (nil)
[blade07:16042] *** Process received signal ***
[blade07:16042] Signal: Segmentation fault (11)
[blade07:16042] Signal code: Address not mapped (1)
[blade07:16042] Failing at address: (nil)
[blade07:16043] *** Process received signal ***
[blade07:16043] Signal: Segmentation fault (11)
[blade07:16043] Signal code: Address not mapped (1)
[blade07:16043] Failing at address: (nil)
[blade07:16044] *** Process received signal ***
[blade07:16044] Signal: Segmentation fault (11)
[blade07:16044] Signal code: Address not mapped (1)
[blade07:16044] Failing at address: (nil)
[blade07:16045] *** Process received signal ***
[blade07:16045] Signal: Segmentation fault (11)
[blade07:16045] Signal code: Address not mapped (1)
[blade07:16045] Failing at address: (nil)
[blade07:16033] [ 0] /lib64/libpthread.so.0[0x333960f7e0]
[blade07:16033] [ 1] ./bin/run[0x425993]
[blade07:16033] [ 2] ./bin/run[0x40ae3b]
[blade07:16033] [ 3] ./bin/run[0x40b178]
[blade07:16033] [ 4] ./bin/run[0x40d353]
[blade07:16033] [ 5] /lib64/libc.so.6(__libc_start_main+0xfd)[0x333921ed5d]
[blade07:16033] [ 6] ./bin/run[0x409209]
[blade07:16033] *** End of error message ***
[blade07:16034] [ 0] /lib64/libpthread.so.0[0x333960f7e0]
[blade07:16034] [ 1] ./bin/run[0x425993]
[blade07:16034] [ 2] ./bin/run[0x40ae3b]
[blade07:16034] [ 3] ./bin/run[0x40b178]
[blade07:16034] [blade07:16035] [ 0] /lib64/libpthread.so.0[0x333960f7e0]
[blade07:16035] [ 1] ./bin/run[0x425993]
[blade07:16035] [ 2] ./bin/run[0x40ae3b]
[blade07:16035] [ 3] ./bin/run[0x40b178]
[blade07:16035] [ 4] ./bin/run[0x40d353]
[blade07:16035] [ 5] [blade07:16036] [ 0] /lib64/libpthread.so.0[0x333960f7e0]
[blade07:16036] [ 1] ./bin/run[0x425993]
[blade07:16036] [ 2] ./bin/run[0x40ae3b]
[blade07:16036] [ 3] ./bin/run[0x40b178]
[blade07:16036] [ 4] ./bin/run[0x40d353]
[blade07:16036] [ 5] [blade07:16037] [ 0] /lib64/libpthread.so.0[0x333960f7e0]
[blade07:16037] [ 1] ./bin/run[0x425993]
[blade07:16037] [ 2] ./bin/run[0x40ae3b]
[blade07:16037] [ 3] ./bin/run[0x40b178]
[blade07:16037] [ 4] ./bin/run[0x40d353]
[blade07:16037] [ 5] [blade07:16038] [ 0] /lib64/libpthread.so.0[0x333960f7e0]
[blade07:16038] [ 1] ./bin/run[0x425993]
[blade07:16038] [ 2] ./bin/run[0x40ae3b]
[blade07:16038] [ 3] ./bin/run[0x40b178]
[blade07:16038] [ 4] ./bin/run[0x40d353]
[blade07:16038] [ 5] [blade07:16039] [ 0] /lib64/libpthread.so.0[0x333960f7e0]
[blade07:16039] [ 1] ./bin/run[0x425993]
[blade07:16039] [ 2] ./bin/run[0x40ae3b]
[blade07:16039] [ 3] ./bin/run[0x40b178]
[blade07:16039] [ 4] ./bin/run[0x40d353]
[blade07:16039] [ 5] [blade07:16040] [ 0] /lib64/libpthread.so.0[0x333960f7e0]
[blade07:16040] [ 1] ./bin/run[0x425993]
[blade07:16040] [ 2] ./bin/run[0x40ae3b]
[blade07:16040] [ 3] ./bin/run[0x40b178]
[blade07:16040] [ 4] ./bin/run[0x40d353]
[blade07:16040] [ 5] [blade07:16041] [ 0] /lib64/libpthread.so.0[0x333960f7e0]
[blade07:16041] [ 1] ./bin/run[0x425993]
[blade07:16041] [ 2] ./bin/run[0x40ae3b]
[blade07:16041] [ 3] ./bin/run[0x40b178]
[blade07:16041] [ 4] ./bin/run[0x40d353]
[blade07:16041] [ 5] [blade07:16042] [ 0] /lib64/libpthread.so.0[0x333960f7e0]
[blade07:16042] [ 1] ./bin/run[0x425993]
[blade07:16042] [ 2] ./bin/run[0x40ae3b]
[blade07:16042] [ 3] ./bin/run[0x40b178]
[blade07:16042] [ 4] ./bin/run[0x40d353]
[blade07:16042] [ 5] /lib64/libc.so.6(__libc_start_main+0xfd)[0x333921ed5d]
[blade07:16043] [ 0] /lib64/libpthread.so.0[0x333960f7e0]
[blade07:16043] [ 1] ./bin/run[0x425993]
[blade07:16043] [ 2] ./bin/run[0x40ae3b]
[blade07:16043] [ 3] ./bin/run[0x40b178]
[blade07:16043] [ 4] ./bin/run[0x40d353]
[blade07:16043] [ 5] /lib64/libc.so.6(__libc_start_main+0xfd)[0x333921ed5d]
[blade07:16043] [ 6] [blade07:16044] [ 0] /lib64/libpthread.so.0[0x333960f7e0]
[blade07:16044] [ 1] ./bin/run[0x425993]
[blade07:16044] [ 2] ./bin/run[0x40ae3b]
[blade07:16044] [ 3] ./bin/run[0x40b178]
[blade07:16044] [ 4] ./bin/run[0x40d353]
[blade07:16044] [ 5] /lib64/libc.so.6(__libc_start_main+0xfd)[0x333921ed5d]
[blade07:16044] [ 6] ./bin/run[0x409209]
[blade07:16045] [ 0] /lib64/libpthread.so.0[0x333960f7e0]
[blade07:16045] [ 1] ./bin/run[0x425993]
[blade07:16045] [ 2] ./bin/run[0x40ae3b]
[blade07:16045] [ 3] ./bin/run[0x40b178]
[blade07:16045] [ 4] ./bin/run[0x40d353]
[blade07:16045] [ 5] /lib64/libc.so.6(__libc_start_main+0xfd)[0x333921ed5d]
[blade07:16045] [ 6] ./bin/run[0x409209]
[blade07:16045] *** End of error message ***
[blade07:16022] [ 0] /lib64/libpthread.so.0[0x333960f7e0]
[blade07:16022] [ 1] ./bin/run[0x425993]
[blade07:16022] [ 2] ./bin/run[0x40ae3b]
[blade07:16022] [ 3] ./bin/run[0x40b178]
[blade07:16022] [ 4] ./bin/run[0x40d353]
[blade07:16022] [ 5] /lib64/libc.so.6(__libc_start_main+0xfd)[0x333921ed5d]
[blade07:16022] [ 6] ./bin/run[0x409209]
[blade07:16022] *** End of error message ***
[blade07:16023] [ 0] /lib64/libpthread.so.0[0x333960f7e0]
[blade07:16023] [ 1] ./bin/run[0x425993]
[blade07:16023] [ 2] ./bin/run[0x40ae3b]
[blade07:16023] [ 3] ./bin/run[0x40b178]
[blade07:16023] [ 4] ./bin/run[0x40d353]
[blade07:16023] [ 5] /lib64/libc.so.6(__libc_start_main+0xfd)[0x333921ed5d]
[blade07:16023] [ 6] ./bin/run[0x409209]
[blade07:16023] *** End of error message ***
[blade07:16024] [ 0] /lib64/libpthread.so.0[0x333960f7e0]
[blade07:16024] [ 1] ./bin/run[0x425993]
[blade07:16024] [ 2] ./bin/run[0x40ae3b]
[blade07:16024] [ 3] ./bin/run[0x40b178]
[blade07:16024] [ 4] ./bin/run[0x40d353]
[blade07:16024] [ 5] /lib64/libc.so.6(__libc_start_main+0xfd)[0x333921ed5d]
[blade07:16024] [ 6] ./bin/run[0x409209]
[blade07:16024] *** End of error message ***
[blade07:16025] [ 0] /lib64/libpthread.so.0[0x333960f7e0]
[blade07:16025] [ 1] ./bin/run[0x425993]
[blade07:16025] [ 2] ./bin/run[0x40ae3b]
[blade07:16025] [ 3] ./bin/run[0x40b178]
[blade07:16025] [ 4] ./bin/run[0x40d353]
[blade07:16025] [ 5] /lib64/libc.so.6(__libc_start_main+0xfd)[0x333921ed5d]
[blade07:16025] [ 6] ./bin/run[0x409209]
[blade07:16025] *** End of error message ***
[blade07:16026] [ 0] /lib64/libpthread.so.0[0x333960f7e0]
[blade07:16026] [ 1] ./bin/run[0x425993]
[blade07:16026] [ 2] ./bin/run[0x40ae3b]
[blade07:16026] [ 3] ./bin/run[0x40b178]
[blade07:16026] [ 4] ./bin/run[0x40d353]
[blade07:16026] [ 5] /lib64/libc.so.6(__libc_start_main+0xfd)[0x333921ed5d]
[blade07:16026] [ 6] ./bin/run[0x409209]
[blade07:16026] *** End of error message ***
[blade07:16027] [ 0] /lib64/libpthread.so.0[0x333960f7e0]
[blade07:16027] [ 1] ./bin/run[0x425993]
[blade07:16027] [ 2] ./bin/run[0x40ae3b]
[blade07:16027] [ 3] ./bin/run[0x40b178]
[blade07:16027] [ 4] ./bin/run[0x40d353]
[blade07:16027] [ 5] /lib64/libc.so.6(__libc_start_main+0xfd)[0x333921ed5d]
[blade07:16027] [ 6] ./bin/run[0x409209]
[blade07:16027] *** End of error message ***
[blade07:16028] [ 0] /lib64/libpthread.so.0[0x333960f7e0]
[blade07:16028] [ 1] ./bin/run[0x425993]
[blade07:16028] [ 2] ./bin/run[0x40ae3b]
[blade07:16028] [ 3] ./bin/run[0x40b178]
[blade07:16028] [ 4] ./bin/run[0x40d353]
[blade07:16028] [ 5] /lib64/libc.so.6(__libc_start_main+0xfd)[0x333921ed5d]
[blade07:16028] [ 6] ./bin/run[0x409209]
[blade07:16028] *** End of error message ***
[blade07:16029] [ 0] /lib64/libpthread.so.0[0x333960f7e0]
[blade07:16029] [ 1] ./bin/run[0x425993]
[blade07:16029] [ 2] ./bin/run[0x40ae3b]
[blade07:16029] [ 3] ./bin/run[0x40b178]
[blade07:16029] [ 4] ./bin/run[0x40d353]
[blade07:16029] [ 5] /lib64/libc.so.6(__libc_start_main+0xfd)[0x333921ed5d]
[blade07:16029] [ 6] ./bin/run[0x409209]
[blade07:16029] *** End of error message ***
[blade07:16030] [ 0] /lib64/libpthread.so.0[0x333960f7e0]
[blade07:16030] [ 1] ./bin/run[0x425993]
[blade07:16030] [ 2] ./bin/run[0x40ae3b]
[blade07:16030] [ 3] ./bin/run[0x40b178]
[blade07:16030] [ 4] ./bin/run[0x40d353]
[blade07:16030] [ 5] /lib64/libc.so.6(__libc_start_main+0xfd)[0x333921ed5d]
[blade07:16030] [ 6] ./bin/run[0x409209]
[blade07:16030] *** End of error message ***
[blade07:16031] [ 0] /lib64/libpthread.so.0[0x333960f7e0]
[blade07:16031] [ 1] ./bin/run[0x425993]
[blade07:16031] [ 2] ./bin/run[0x40ae3b]
[blade07:16031] [ 3] ./bin/run[0x40b178]
[blade07:16031] [ 4] ./bin/run[0x40d353]
[blade07:16031] [ 5] /lib64/libc.so.6(__libc_start_main+0xfd)[0x333921ed5d]
[blade07:16031] [ 6] ./bin/run[0x409209]
[blade07:16031] *** End of error message ***
/lib64/libpthread.so.0[0x333960f7e0]
[blade07:16032] [ 1] ./bin/run[0x425993]
[blade07:16032] [ 2] ./bin/run[0x40ae3b]
[blade07:16032] [ 3] ./bin/run[0x40b178]
[blade07:16032] [ 4] ./bin/run[0x40d353]
[blade07:16032] [ 5] /lib64/libc.so.6(__libc_start_main+0xfd)[0x333921ed5d]
[blade07:16032] [ 6] ./bin/run[0x409209]
[blade07:16032] *** End of error message ***
[blade07:16044] *** End of error message ***
[ 4] ./bin/run[0x40d353]
[blade07:16034] [ 5] /lib64/libc.so.6(__libc_start_main+0xfd)[0x333921ed5d]
[blade07:16034] [ 6] ./bin/run[0x409209]
[blade07:16034] *** End of error message ***
/lib64/libc.so.6(__libc_start_main+0xfd)[0x333921ed5d]
[blade07:16035] [ 6] ./bin/run[0x409209]
[blade07:16035] *** End of error message ***
/lib64/libc.so.6(__libc_start_main+0xfd)[0x333921ed5d]
[blade07:16036] [ 6] ./bin/run[0x409209]
[blade07:16036] *** End of error message ***
/lib64/libc.so.6(__libc_start_main+0xfd)[0x333921ed5d]
[blade07:16037] [ 6] ./bin/run[0x409209]
[blade07:16037] *** End of error message ***
/lib64/libc.so.6(__libc_start_main+0xfd)[0x333921ed5d]
[blade07:16038] [ 6] ./bin/run[0x409209]
[blade07:16038] *** End of error message ***
/lib64/libc.so.6(__libc_start_main+0xfd)[0x333921ed5d]
[blade07:16039] [ 6] ./bin/run[0x409209]
[blade07:16039] *** End of error message ***
/lib64/libc.so.6(__libc_start_main+0xfd)[0x333921ed5d]
[blade07:16040] [ 6] ./bin/run[0x409209]
[blade07:16040] *** End of error message ***
/lib64/libc.so.6(__libc_start_main+0xfd)[0x333921ed5d]
[blade07:16041] [ 6] ./bin/run[0x409209]
[blade07:16041] *** End of error message ***
[blade07:16042] [ 6] ./bin/run[0x409209]
[blade07:16042] *** End of error message ***
./bin/run[0x409209]
[blade07:16043] *** End of error message ***
--------------------------------------------------------------------------
mpiexec noticed that process rank 7 with PID 16029 on node blade07 exited on signal 11 (Segmentation fault).
--------------------------------------------------------------------------
Fri Sep 30 14:16:08 MSK 2016
end calculations
