start calculations
Wed Oct  5 18:10:28 MSK 2016
start of host program
Total time of CPU-GPU copy: 0.00266385s
0 0.000000
1 1.000000
2 4.000000
3 9.000000
4 16.000000
5 25.000000
6 36.000000
7 49.000000
8 64.000000
9 81.000000
end of program
Wed Oct  5 18:10:36 MSK 2016
end calculations
