start calculations
Sun Dec 11 14:37:58 MSK 2016
--------------------------------------------------------------------------
WARNING: There is at least non-excluded one OpenFabrics device found,
but there are no active ports detected (or Open MPI was unable to use
them).  This is most certainly not what you wanted.  Check your
cables, subnet manager configuration, etc.  The openib BTL will be
ignored for this job.

  Local host: blade03
--------------------------------------------------------------------------
np = 24
N1=25000 N2=25000 dN=0

M0=6.25e+09 Nn=1 Nc=24 W=10
Several groups of processes simultaneously perform their computations. All matrices lay at one node's DRAM
M0=6.25e+09 Nn=1 Nc=24 W=10
FFT test (fftw)
N x N = 25000 x 25000
Overall memory allocated for one array: 9536.74 Mb
Memory allocated on the core 0: 3179.17 Mb
[blade03.hydra.local:34371] 23 more processes have sent help message help-mpi-btl-openib.txt / no active ports found
[blade03.hydra.local:34371] Set MCA parameter "orte_base_help_aggregate" to 0 to see all help / error messages
Forward DFT...
One Distributed Forward 2d DFT time: 55.5913s
FLOPs for one forward DFT: 4.3625e+10 adds, 2.3125e+10 mults, 1.95e+10 fmas

Total time: 57.2079s
Sun Dec 11 14:38:57 MSK 2016
end calculations
