start calculations
Thu Dec  8 12:28:48 MSK 2016
--------------------------------------------------------------------------
WARNING: There is at least non-excluded one OpenFabrics device found,
but there are no active ports detected (or Open MPI was unable to use
them).  This is most certainly not what you wanted.  Check your
cables, subnet manager configuration, etc.  The openib BTL will be
ignored for this job.

  Local host: blade06
--------------------------------------------------------------------------
np = 24
N1=30000 N2=30000 dN=0

M0=6.875e+09 Nn=1 Nc=24 W=7
Several groups of processes simultaneously perform their computations. All matrices lay at one node's DRAM
M0=6.875e+09 Nn=1 Nc=24 W=7
FFT test (fftw)
N x N = 30000 x 30000
Overall memory allocated for one array: 13732.9 Mb
Memory allocated on the core 0: 3433.23 Mb
[blade06.hydra.local:30490] 23 more processes have sent help message help-mpi-btl-openib.txt / no active ports found
[blade06.hydra.local:30490] Set MCA parameter "orte_base_help_aggregate" to 0 to see all help / error messages
Forward DFT...
One Distributed Forward 2d DFT time: 65.7147s
FLOPs for one forward DFT: 6.072e+10 adds, 3.042e+10 mults, 2.754e+10 fmas

Total time: 67.4436s
Thu Dec  8 12:29:56 MSK 2016
end calculations
