start calculations
Mon Oct  3 19:20:04 MSK 2016
np = 24
N1=35000 N2=35000 dN=0

M0=2147483647 Nn=24 Nc=24 W=1
All processes together perform only one FFT of a matrix laying completely at one node's DRAM
FFT test (fftw)
N x N = 35000 x 35000
Overall memory allocated for one array: 18692 Mb
Memory allocated on the core 0: 779.19 Mb
Forward DFT...
One Distributed Forward 2d DFT time: 22.9316s
FLOPs for one forward DFT: 8.218e+10 adds, 4.242e+10 mults, 4.27e+10 fmas

Total time: 24.5205s
Mon Oct  3 19:20:29 MSK 2016
end calculations
