start calculations
Wed Oct  5 16:15:51 MSK 2016
np = 24
N1=20000 N2=20000 dN=0

M0=6.875e+09 Nn=1 Nc=24 W=17
Several groups of processes simultaneously perform their computations. All matrices lay at one node's DRAM
M0=6.875e+09 Nn=1 Nc=24 W=17
FFT test (fftw)
N x N = 20000 x 20000
Overall memory allocated for one array: 6103.52 Mb
Memory allocated on the core 0: 3051.76 Mb
Forward DFT...
One Distributed Forward 2d DFT time: 39.193s
FLOPs for one forward DFT: 2.642e+10 adds, 1.282e+10 mults, 1.104e+10 fmas

Total time: 40.7784s
Wed Oct  5 16:16:32 MSK 2016
end calculations
