start calculations
Sun Dec 11 14:36:51 MSK 2016
--------------------------------------------------------------------------
WARNING: There is at least non-excluded one OpenFabrics device found,
but there are no active ports detected (or Open MPI was unable to use
them).  This is most certainly not what you wanted.  Check your
cables, subnet manager configuration, etc.  The openib BTL will be
ignored for this job.

  Local host: blade03
--------------------------------------------------------------------------
np = 24
N1=60000 N2=60000 dN=0

M0=6.875e+09 Nn=1 Nc=24 W=1
All processes together perform only one FFT of a matrix laying completely at one node's DRAM
FFT test (fftw)
N x N = 60000 x 60000
Overall memory allocated for one array: 54931.6 Mb
Memory allocated on the core 0: 2288.82 Mb
[blade03.hydra.local:34141] 23 more processes have sent help message help-mpi-btl-openib.txt / no active ports found
[blade03.hydra.local:34141] Set MCA parameter "orte_base_help_aggregate" to 0 to see all help / error messages
Forward DFT...
One Distributed Forward 2d DFT time: 39.8483s
FLOPs for one forward DFT: 2.6448e+11 adds, 1.2612e+11 mults, 1.074e+11 fmas

Total time: 41.1776s
Sun Dec 11 14:37:34 MSK 2016
end calculations
